<svg width="77" height="109" viewBox="0 0 77 109" fill="none" xmlns="http://www.w3.org/2000/svg">
<path d="M16.0417 37.3229C11.165 37.3229 7.21875 33.3766 7.21875 28.5C7.21875 23.6233 11.165 19.6771 16.0417 19.6771C20.9183 19.6771 24.8646 23.6233 24.8646 28.5C24.8646 33.3766 20.9183 37.3229 16.0417 37.3229ZM16.0417 24.4896C13.8279 24.4896 12.0312 26.2862 12.0312 28.5C12.0312 30.7137 13.8279 32.5104 16.0417 32.5104C18.2554 32.5104 20.0521 30.7137 20.0521 28.5C20.0521 26.2862 18.2554 24.4896 16.0417 24.4896Z" fill="white"/>
<path d="M60.9583 37.3229C56.0816 37.3229 52.1354 33.3766 52.1354 28.5C52.1354 23.6233 56.0816 19.6771 60.9583 19.6771C65.835 19.6771 69.7812 23.6233 69.7812 28.5C69.7812 33.3766 65.835 37.3229 60.9583 37.3229ZM60.9583 24.4896C58.7445 24.4896 56.9479 26.2862 56.9479 28.5C56.9479 30.7137 58.7445 32.5104 60.9583 32.5104C63.172 32.5104 64.9687 30.7137 64.9687 28.5C64.9687 26.2862 63.172 24.4896 60.9583 24.4896Z" fill="white"/>
<path d="M38.5 37.3229C33.6234 37.3229 29.6771 33.3766 29.6771 28.5C29.6771 23.6233 33.6234 19.6771 38.5 19.6771C43.3767 19.6771 47.323 23.6233 47.323 28.5C47.323 33.3766 43.3767 37.3229 38.5 37.3229ZM38.5 24.4896C36.2863 24.4896 34.4896 26.2862 34.4896 28.5C34.4896 30.7137 36.2863 32.5104 38.5 32.5104C40.7138 32.5104 42.5105 30.7137 42.5105 28.5C42.5105 26.2862 40.7138 24.4896 38.5 24.4896Z" fill="white"/>
<path d="M16.0417 58.3229C11.165 58.3229 7.21875 54.3766 7.21875 49.5C7.21875 44.6233 11.165 40.6771 16.0417 40.6771C20.9183 40.6771 24.8646 44.6233 24.8646 49.5C24.8646 54.3766 20.9183 58.3229 16.0417 58.3229ZM16.0417 45.4896C13.8279 45.4896 12.0312 47.2862 12.0312 49.5C12.0312 51.7137 13.8279 53.5104 16.0417 53.5104C18.2554 53.5104 20.0521 51.7137 20.0521 49.5C20.0521 47.2862 18.2554 45.4896 16.0417 45.4896Z" fill="white"/>
<path d="M60.9583 58.3229C56.0816 58.3229 52.1354 54.3766 52.1354 49.5C52.1354 44.6233 56.0816 40.6771 60.9583 40.6771C65.835 40.6771 69.7812 44.6233 69.7812 49.5C69.7812 54.3766 65.835 58.3229 60.9583 58.3229ZM60.9583 45.4896C58.7445 45.4896 56.9479 47.2862 56.9479 49.5C56.9479 51.7137 58.7445 53.5104 60.9583 53.5104C63.172 53.5104 64.9687 51.7137 64.9687 49.5C64.9687 47.2862 63.172 45.4896 60.9583 45.4896Z" fill="white"/>
<path d="M38.5 58.3229C33.6234 58.3229 29.6771 54.3766 29.6771 49.5C29.6771 44.6233 33.6234 40.6771 38.5 40.6771C43.3767 40.6771 47.323 44.6233 47.323 49.5C47.323 54.3766 43.3767 58.3229 38.5 58.3229ZM38.5 45.4896C36.2863 45.4896 34.4896 47.2862 34.4896 49.5C34.4896 51.7137 36.2863 53.5104 38.5 53.5104C40.7138 53.5104 42.5105 51.7137 42.5105 49.5C42.5105 47.2862 40.7138 45.4896 38.5 45.4896Z" fill="white"/>
<path d="M16.0417 79.3229C11.165 79.3229 7.21875 75.3766 7.21875 70.5C7.21875 65.6233 11.165 61.6771 16.0417 61.6771C20.9183 61.6771 24.8646 65.6233 24.8646 70.5C24.8646 75.3766 20.9183 79.3229 16.0417 79.3229ZM16.0417 66.4896C13.8279 66.4896 12.0312 68.2862 12.0312 70.5C12.0312 72.7137 13.8279 74.5104 16.0417 74.5104C18.2554 74.5104 20.0521 72.7137 20.0521 70.5C20.0521 68.2862 18.2554 66.4896 16.0417 66.4896Z" fill="white"/>
<path d="M60.9583 79.3229C56.0816 79.3229 52.1354 75.3766 52.1354 70.5C52.1354 65.6233 56.0816 61.6771 60.9583 61.6771C65.835 61.6771 69.7812 65.6233 69.7812 70.5C69.7812 75.3766 65.835 79.3229 60.9583 79.3229ZM60.9583 66.4896C58.7445 66.4896 56.9479 68.2862 56.9479 70.5C56.9479 72.7137 58.7445 74.5104 60.9583 74.5104C63.172 74.5104 64.9687 72.7137 64.9687 70.5C64.9687 68.2862 63.172 66.4896 60.9583 66.4896Z" fill="white"/>
<path d="M38.5 79.3229C33.6234 79.3229 29.6771 75.3766 29.6771 70.5C29.6771 65.6233 33.6234 61.6771 38.5 61.6771C43.3767 61.6771 47.323 65.6233 47.323 70.5C47.323 75.3766 43.3767 79.3229 38.5 79.3229ZM38.5 66.4896C36.2863 66.4896 34.4896 68.2862 34.4896 70.5C34.4896 72.7137 36.2863 74.5104 38.5 74.5104C40.7138 74.5104 42.5105 72.7137 42.5105 70.5C42.5105 68.2862 40.7138 66.4896 38.5 66.4896Z" fill="white"/>
</svg>
