<svg width="46" height="46" viewBox="0 0 46 46" fill="none" xmlns="http://www.w3.org/2000/svg">
<path d="M23 30.1875C19.0325 30.1875 15.8125 26.9675 15.8125 23C15.8125 19.0325 19.0325 15.8125 23 15.8125C26.9675 15.8125 30.1875 19.0325 30.1875 23C30.1875 26.9675 26.9675 30.1875 23 30.1875ZM23 18.6875C20.6233 18.6875 18.6875 20.6233 18.6875 23C18.6875 25.3767 20.6233 27.3125 23 27.3125C25.3767 27.3125 27.3125 25.3767 27.3125 23C27.3125 20.6233 25.3767 18.6875 23 18.6875Z" fill="white"/>
<path d="M29.1525 42.5308C28.75 42.5308 28.3475 42.4733 27.945 42.3775C26.7567 42.0517 25.76 41.3042 25.1275 40.25L24.8975 39.8667C23.7667 37.9117 22.2142 37.9117 21.0833 39.8667L20.8725 40.2308C20.24 41.3042 19.2433 42.0708 18.055 42.3775C16.8475 42.7033 15.6017 42.5308 14.5475 41.8983L11.2508 40.0008C10.0817 39.33 9.23833 38.2375 8.87416 36.915C8.52916 35.5925 8.70166 34.2317 9.3725 33.0625C9.92833 32.085 10.0817 31.2033 9.75583 30.6475C9.43 30.0917 8.60583 29.7658 7.475 29.7658C4.67666 29.7658 2.39583 27.485 2.39583 24.6867V21.3133C2.39583 18.515 4.67666 16.2342 7.475 16.2342C8.60583 16.2342 9.43 15.9083 9.75583 15.3525C10.0817 14.7967 9.94749 13.915 9.3725 12.9375C8.70166 11.7683 8.52916 10.3883 8.87416 9.08499C9.21916 7.76249 10.0625 6.66999 11.2508 5.99916L14.5667 4.10166C16.7325 2.81749 19.5883 3.56499 20.8917 5.76916L21.1217 6.15249C22.2525 8.10749 23.805 8.10749 24.9358 6.15249L25.1467 5.78833C26.45 3.56499 29.3058 2.81749 31.4908 4.12083L34.7875 6.01833C35.9567 6.68916 36.8 7.78166 37.1642 9.10416C37.5092 10.4267 37.3367 11.7875 36.6658 12.9567C36.11 13.9342 35.9567 14.8158 36.2825 15.3717C36.6083 15.9275 37.4325 16.2533 38.5633 16.2533C41.3617 16.2533 43.6425 18.5342 43.6425 21.3325V24.7058C43.6425 27.5042 41.3617 29.785 38.5633 29.785C37.4325 29.785 36.6083 30.1108 36.2825 30.6667C35.9567 31.2225 36.0908 32.1042 36.6658 33.0817C37.3367 34.2508 37.5283 35.6308 37.1642 36.9342C36.8192 38.2567 35.9758 39.3492 34.7875 40.02L31.4717 41.9175C30.7433 42.32 29.9575 42.5308 29.1525 42.5308ZM23 35.4392C24.7058 35.4392 26.2967 36.5125 27.3892 38.41L27.6 38.7742C27.83 39.1767 28.2133 39.4642 28.6733 39.5792C29.1333 39.6942 29.5933 39.6367 29.9767 39.4067L33.2925 37.49C33.7908 37.2025 34.1742 36.7233 34.3275 36.1483C34.4808 35.5733 34.4042 34.9792 34.1167 34.4808C33.0242 32.6025 32.89 30.6667 33.7333 29.1908C34.5767 27.715 36.3208 26.8717 38.5058 26.8717C39.7325 26.8717 40.71 25.8942 40.71 24.6675V21.2942C40.71 20.0867 39.7325 19.09 38.5058 19.09C36.3208 19.09 34.5767 18.2467 33.7333 16.7708C32.89 15.295 33.0242 13.3592 34.1167 11.4808C34.4042 10.9825 34.4808 10.3883 34.3275 9.81333C34.1742 9.23833 33.81 8.77833 33.3117 8.47166L29.9958 6.57416C29.1717 6.07583 28.0792 6.36333 27.5808 7.20666L27.37 7.57083C26.2775 9.46833 24.6867 10.5417 22.9808 10.5417C21.275 10.5417 19.6842 9.46833 18.5917 7.57083L18.3808 7.18749C17.9017 6.38249 16.8283 6.09499 16.0042 6.57416L12.6883 8.49083C12.19 8.77833 11.8067 9.25749 11.6533 9.83249C11.5 10.4075 11.5767 11.0017 11.8642 11.5C12.9567 13.3783 13.0908 15.3142 12.2475 16.79C11.4042 18.2658 9.66 19.1092 7.475 19.1092C6.24833 19.1092 5.27083 20.0867 5.27083 21.3133V24.6867C5.27083 25.8942 6.24833 26.8908 7.475 26.8908C9.66 26.8908 11.4042 27.7342 12.2475 29.21C13.0908 30.6858 12.9567 32.6217 11.8642 34.5C11.5767 34.9983 11.5 35.5925 11.6533 36.1675C11.8067 36.7425 12.1708 37.2025 12.6692 37.5092L15.985 39.4067C16.3875 39.6558 16.8667 39.7133 17.3075 39.5983C17.7675 39.4833 18.1508 39.1767 18.4 38.7742L18.6108 38.41C19.7033 36.5317 21.2942 35.4392 23 35.4392Z" fill="white"/>
</svg>
