<svg width="46" height="46" viewBox="0 0 46 46" fill="none" xmlns="http://www.w3.org/2000/svg">
<path d="M29.7083 36.7042H12.4583C6.05666 36.7042 2.39583 33.0434 2.39583 26.6417V16.2917C2.39583 9.89 6.05666 6.22916 12.4583 6.22916H17.6333C18.0933 6.22916 18.5342 6.45928 18.8025 6.82344C19.0708 7.18761 19.1475 7.68581 18.9942 8.12665C18.7833 8.72081 18.6875 9.3725 18.6875 10.0625V17.5375C18.6875 18.9942 19.1283 20.2016 19.9717 21.045C20.815 21.8883 22.0225 22.3292 23.4792 22.3292C24.265 22.3292 24.9167 22.9809 24.9167 23.7667V26.0666L30.1492 22.5592C30.3792 22.4059 30.6667 22.31 30.9542 22.31H35.9375C36.6275 22.31 37.2792 22.2141 37.8733 22.0033C38.3142 21.85 38.7933 21.9266 39.1767 22.1949C39.56 22.4632 39.7708 22.9041 39.7708 23.364V26.6225C39.7708 33.0434 36.11 36.7042 29.7083 36.7042ZM12.4583 9.10416C7.62833 9.10416 5.27083 11.4617 5.27083 16.2917V26.6417C5.27083 31.4717 7.62833 33.8292 12.4583 33.8292H29.7083C34.5383 33.8292 36.8958 31.4717 36.8958 26.6417V25.1467C36.5892 25.185 36.2633 25.2042 35.9375 25.2042H31.395L26.22 28.6541C25.3767 29.1907 24.3225 29.2483 23.46 28.7692C22.5975 28.3092 22.0608 27.4084 22.0608 26.4309V25.0891C20.4508 24.8399 19.0325 24.1309 17.9592 23.0767C16.5983 21.7159 15.8317 19.7417 15.8317 17.5375V10.0625C15.8317 9.73666 15.8508 9.41083 15.87 9.10416H12.4583Z" fill="white"/>
<path d="M24.725 29.0951C24.2842 29.0951 23.8433 28.98 23.4408 28.7692C22.5783 28.3092 22.0417 27.4084 22.0417 26.4309V25.0891C20.4317 24.8399 19.0133 24.1309 17.94 23.0767C16.5792 21.7159 15.8125 19.7417 15.8125 17.5375V10.0625C15.8125 9.04667 15.9658 8.08836 16.2725 7.20669C17.3458 4.19752 20.0292 2.39584 23.4792 2.39584H35.9375C40.4417 2.39584 43.6042 5.53917 43.6042 10.0625V17.5375C43.6042 20.9876 41.8217 23.6709 38.8125 24.7442C37.8925 25.0509 36.9342 25.2042 35.9375 25.2042H31.395L26.22 28.6541C25.76 28.9607 25.2425 29.0951 24.725 29.0951ZM23.4792 5.27084C21.275 5.27084 19.6458 6.325 18.9942 8.14584C18.8025 8.72084 18.6875 9.3725 18.6875 10.0625V17.5375C18.6875 18.9942 19.1283 20.2016 19.9717 21.045C20.815 21.8883 22.0225 22.3292 23.4792 22.3292C24.265 22.3292 24.9167 22.9809 24.9167 23.7667V26.0666L30.1492 22.5592C30.3792 22.4059 30.6667 22.31 30.9542 22.31H35.9375C36.6275 22.31 37.2792 22.2141 37.8733 22.0033C39.6942 21.3516 40.7292 19.7225 40.7292 17.5184V10.0433C40.7292 7.09165 38.8892 5.25165 35.9375 5.25165H23.4792V5.27084Z" fill="white"/>
<path d="M27.9832 43.6042H14.1832C13.3973 43.6042 12.7457 42.9525 12.7457 42.1667C12.7457 41.3808 13.3973 40.7292 14.1832 40.7292H27.9832C28.769 40.7292 29.4207 41.3808 29.4207 42.1667C29.4207 42.9525 28.769 43.6042 27.9832 43.6042Z" fill="white"/>
<path d="M21.0833 43.6042C20.2975 43.6042 19.6458 42.9525 19.6458 42.1667V35.2667C19.6458 34.4809 20.2975 33.8292 21.0833 33.8292C21.8692 33.8292 22.5208 34.4809 22.5208 35.2667V42.1667C22.5208 42.9525 21.8692 43.6042 21.0833 43.6042Z" fill="white"/>
<path d="M29.5932 15.3333C28.7882 15.3333 28.1557 14.6817 28.1557 13.8958C28.1557 13.11 28.8074 12.4583 29.5932 12.4583C30.3791 12.4583 31.0307 13.11 31.0307 13.8958C31.0307 14.6817 30.3791 15.3333 29.5932 15.3333Z" fill="white"/>
<path d="M34.9792 15.3333C34.1742 15.3333 33.5417 14.6817 33.5417 13.8958C33.5417 13.11 34.1933 12.4583 34.9792 12.4583C35.765 12.4583 36.4167 13.11 36.4167 13.8958C36.4167 14.6817 35.765 15.3333 34.9792 15.3333Z" fill="white"/>
<path d="M24.1886 15.3333C23.3836 15.3333 22.7511 14.6817 22.7511 13.8958C22.7511 13.11 23.4027 12.4583 24.1886 12.4583C24.9744 12.4583 25.6261 13.11 25.6261 13.8958C25.6261 14.6817 24.9936 15.3333 24.1886 15.3333Z" fill="white"/>
</svg>
