<svg width="406" height="90" viewBox="0 0 406 90" fill="none" xmlns="http://www.w3.org/2000/svg">
<g filter="url(#filter0_d_22_231)">
<path d="M4 41C4 18.3563 22.3563 0 45 0H361C383.644 0 402 18.3563 402 41V82H45C22.3563 82 4 63.6437 4 41Z" fill="#1860DA" fill-opacity="0.47" shape-rendering="crispEdges"/>
<path d="M5 41C5 18.9086 22.9086 1 45 1H361C383.091 1 401 18.9086 401 41V81H45C22.9086 81 5 63.0914 5 41Z" stroke="white" stroke-width="2" shape-rendering="crispEdges"/>
</g>
<defs>
<filter id="filter0_d_22_231" x="0" y="0" width="406" height="90" filterUnits="userSpaceOnUse" color-interpolation-filters="sRGB">
<feFlood flood-opacity="0" result="BackgroundImageFix"/>
<feColorMatrix in="SourceAlpha" type="matrix" values="0 0 0 0 0 0 0 0 0 0 0 0 0 0 0 0 0 0 127 0" result="hardAlpha"/>
<feOffset dy="4"/>
<feGaussianBlur stdDeviation="2"/>
<feComposite in2="hardAlpha" operator="out"/>
<feColorMatrix type="matrix" values="0 0 0 0 0 0 0 0 0 0 0 0 0 0 0 0 0 0 0.25 0"/>
<feBlend mode="normal" in2="BackgroundImageFix" result="effect1_dropShadow_22_231"/>
<feBlend mode="normal" in="SourceGraphic" in2="effect1_dropShadow_22_231" result="shape"/>
</filter>
</defs>
</svg>
