<svg width="53" height="55" viewBox="0 0 53 55" fill="none" xmlns="http://www.w3.org/2000/svg">
<path d="M13.6697 50.5542C11.4614 50.5542 9.31927 49.6604 7.61885 47.9417C4.85844 45.1459 4.19594 41.0209 5.91844 37.4459L9.49594 30.0209C10.2468 28.4625 10.2468 26.5834 9.49594 25.0021L5.91844 17.5542C4.19594 13.9792 4.85844 9.85419 7.61885 7.05835C10.3793 4.26252 14.3543 3.64377 17.7772 5.52294L43.3718 19.5021C46.2426 21.0604 48.0314 24.1313 48.0314 27.5C48.0314 30.8688 46.2426 33.9396 43.3718 35.4979L17.7772 49.4771C16.4522 50.2104 15.0609 50.5542 13.6697 50.5542ZM13.6918 7.88335C12.168 7.88335 10.843 8.61668 9.9376 9.53335C8.56844 10.9084 7.59677 13.3604 8.8776 16.0417L12.4551 23.4667C13.6697 26.0104 13.6697 29.0125 12.4551 31.5563L8.8776 38.9813C7.57469 41.6625 8.56844 44.1146 9.9376 45.4896C11.3068 46.8646 13.6697 47.85 16.2314 46.4521L41.8259 32.4729C43.6368 31.4875 44.7189 29.6313 44.7189 27.5229C44.7189 25.4146 43.6368 23.5584 41.8259 22.5729L16.2314 8.54794C15.348 8.06669 14.4868 7.88335 13.6918 7.88335Z" fill="white"/>
</svg>
