<svg width="619" height="747" viewBox="0 0 619 747" fill="none" xmlns="http://www.w3.org/2000/svg">
<g filter="url(#filter0_d_235_312)">
<rect x="4" width="611" height="739" rx="103" fill="#1E4BD6"/>
</g>
<g filter="url(#filter1_d_235_312)">
<path d="M309.5 388.356C301.421 388.356 293.811 384.637 288.425 378.156L270.863 356.906C270.511 356.481 269.106 355.844 268.404 355.844H262.667C213.843 355.844 183.635 343.837 183.635 284.125V231C183.635 184.037 210.916 159.281 262.667 159.281H309.5C314.301 159.281 318.281 162.894 318.281 167.25C318.281 171.606 314.301 175.219 309.5 175.219H262.667C220.751 175.219 201.198 192.962 201.198 231V284.125C201.198 332.15 219.346 339.906 262.667 339.906H268.521C274.492 339.906 281.283 342.987 284.913 347.344L302.475 368.594C306.573 373.481 312.427 373.481 316.525 368.594L334.088 347.344C337.951 342.669 344.04 339.906 350.479 339.906H356.333C398.249 339.906 417.802 322.162 417.802 284.125V231C417.802 226.644 421.783 223.031 426.583 223.031C431.384 223.031 435.365 226.644 435.365 231V284.125C435.365 331.087 408.084 355.844 356.333 355.844H350.479C349.543 355.844 348.723 356.269 348.138 356.906L330.575 378.156C325.189 384.637 317.579 388.356 309.5 388.356Z" fill="white"/>
<path d="M356.333 273.5C349.777 273.5 344.625 268.719 344.625 262.875C344.625 257.031 349.894 252.25 356.333 252.25C362.773 252.25 368.042 257.031 368.042 262.875C368.042 268.719 362.89 273.5 356.333 273.5Z" fill="white"/>
<path d="M262.667 273.5C256.11 273.5 250.958 268.719 250.958 262.875C250.958 257.031 256.227 252.25 262.667 252.25C269.106 252.25 274.375 257.031 274.375 262.875C274.375 268.719 269.223 273.5 262.667 273.5Z" fill="white"/>
<path d="M379.75 228.344C369.681 228.344 345.913 217.506 338.654 197.637C335.727 189.775 336.429 180.744 340.527 173.625C344.157 167.25 350.245 162.575 357.738 160.45C365.349 158.325 373.428 159.281 379.75 162.787C386.073 159.281 394.151 158.325 401.879 160.45C409.372 162.575 415.46 167.25 419.09 173.625C423.188 180.744 423.89 189.775 420.963 197.637C413.587 217.825 388.765 228.344 379.75 228.344ZM355.28 192.537C360.197 205.925 376.94 212.087 379.984 212.406C383.38 212.087 399.771 205.181 404.338 192.644C405.743 188.819 405.391 184.25 403.518 180.956C401.996 178.3 399.771 176.6 396.727 175.75C393.449 174.687 389 175.219 387.009 177.875C385.37 180 382.794 181.275 379.984 181.381C377.174 181.381 374.481 180.212 372.725 178.194C370.266 175.325 365.934 174.9 362.773 175.75C359.729 176.6 357.504 178.3 355.982 180.956C354.226 184.25 353.875 188.712 355.28 192.537Z" fill="white"/>
<path d="M308.582 315.055C301.896 315.055 296.644 309.955 296.644 303.722C296.644 297.489 302.016 292.389 308.582 292.389C315.148 292.389 320.52 297.489 320.52 303.722C320.52 309.955 315.267 315.055 308.582 315.055Z" fill="white"/>
</g>
<path d="M126.598 516.8V542H123.97V519.104H108.022V542H105.394V516.8H126.598ZM143.202 522.92C145.05 522.92 146.694 523.328 148.134 524.144C149.574 524.96 150.69 526.1 151.482 527.564C152.298 529.028 152.706 530.696 152.706 532.568C152.706 534.44 152.31 536.108 151.518 537.572C150.726 539.012 149.622 540.14 148.206 540.956C146.814 541.772 145.218 542.18 143.418 542.18C141.834 542.18 140.418 541.868 139.17 541.244C137.946 540.596 136.95 539.672 136.182 538.472V548.984H133.626V532.604C133.626 530.708 134.022 529.028 134.814 527.564C135.63 526.1 136.758 524.96 138.198 524.144C139.662 523.328 141.33 522.92 143.202 522.92ZM143.13 539.948C144.474 539.948 145.686 539.636 146.766 539.012C147.846 538.388 148.686 537.512 149.286 536.384C149.886 535.256 150.186 533.984 150.186 532.568C150.186 531.152 149.886 529.88 149.286 528.752C148.686 527.624 147.846 526.748 146.766 526.124C145.686 525.476 144.474 525.152 143.13 525.152C141.786 525.152 140.574 525.464 139.494 526.088C138.438 526.712 137.61 527.588 137.01 528.716C136.434 529.82 136.146 531.092 136.146 532.532C136.146 533.972 136.434 535.256 137.01 536.384C137.61 537.512 138.438 538.388 139.494 539.012C140.574 539.636 141.786 539.948 143.13 539.948ZM174.888 523.064V542H172.44V538.544C171.768 539.696 170.844 540.596 169.668 541.244C168.492 541.868 167.148 542.18 165.636 542.18C163.14 542.18 161.172 541.496 159.732 540.128C158.316 538.736 157.608 536.708 157.608 534.044V523.064H160.164V533.792C160.164 535.784 160.656 537.296 161.64 538.328C162.624 539.36 164.04 539.876 165.888 539.876C167.88 539.876 169.452 539.276 170.604 538.076C171.756 536.852 172.332 535.16 172.332 533V523.064H174.888ZM194.221 532.208C196.789 532.808 198.073 534.356 198.073 536.852C198.073 538.508 197.461 539.78 196.237 540.668C195.013 541.556 193.189 542 190.765 542H182.161V523.064H190.513C192.673 523.064 194.365 523.484 195.589 524.324C196.813 525.164 197.425 526.364 197.425 527.924C197.425 528.956 197.137 529.844 196.561 530.588C196.009 531.308 195.229 531.848 194.221 532.208ZM184.645 531.488H190.333C191.797 531.488 192.913 531.212 193.681 530.66C194.473 530.108 194.869 529.304 194.869 528.248C194.869 527.192 194.473 526.4 193.681 525.872C192.913 525.344 191.797 525.08 190.333 525.08H184.645V531.488ZM190.657 539.984C192.289 539.984 193.513 539.72 194.329 539.192C195.145 538.664 195.553 537.836 195.553 536.708C195.553 535.58 195.181 534.752 194.437 534.224C193.693 533.672 192.517 533.396 190.909 533.396H184.645V539.984H190.657ZM212.092 539.912C213.268 539.912 214.348 539.708 215.332 539.3C216.34 538.868 217.192 538.244 217.888 537.428L219.328 539.084C218.488 540.092 217.444 540.86 216.196 541.388C214.948 541.916 213.568 542.18 212.056 542.18C210.112 542.18 208.384 541.772 206.872 540.956C205.36 540.116 204.184 538.964 203.344 537.5C202.504 536.036 202.084 534.38 202.084 532.532C202.084 530.684 202.48 529.028 203.272 527.564C204.088 526.1 205.204 524.96 206.62 524.144C208.036 523.328 209.644 522.92 211.444 522.92C213.124 522.92 214.636 523.304 215.98 524.072C217.348 524.84 218.428 525.908 219.22 527.276C220.036 528.644 220.468 530.204 220.516 531.956L204.964 534.98C205.444 536.516 206.308 537.728 207.556 538.616C208.828 539.48 210.34 539.912 212.092 539.912ZM211.444 525.116C210.124 525.116 208.936 525.428 207.88 526.052C206.848 526.652 206.032 527.504 205.432 528.608C204.856 529.688 204.568 530.936 204.568 532.352C204.568 532.712 204.58 532.976 204.604 533.144L217.96 530.552C217.672 528.968 216.94 527.672 215.764 526.664C214.588 525.632 213.148 525.116 211.444 525.116ZM249.406 522.92C251.782 522.92 253.642 523.604 254.986 524.972C256.354 526.34 257.038 528.356 257.038 531.02V542H254.482V531.272C254.482 529.304 254.002 527.804 253.042 526.772C252.106 525.74 250.774 525.224 249.046 525.224C247.078 525.224 245.53 525.836 244.402 527.06C243.274 528.26 242.71 529.928 242.71 532.064V542H240.154V531.272C240.154 529.304 239.674 527.804 238.714 526.772C237.778 525.74 236.434 525.224 234.682 525.224C232.738 525.224 231.19 525.836 230.038 527.06C228.91 528.26 228.346 529.928 228.346 532.064V542H225.79V523.064H228.238V526.52C228.91 525.368 229.846 524.48 231.046 523.856C232.246 523.232 233.626 522.92 235.186 522.92C236.77 522.92 238.138 523.256 239.29 523.928C240.466 524.6 241.342 525.596 241.918 526.916C242.614 525.668 243.61 524.696 244.906 524C246.226 523.28 247.726 522.92 249.406 522.92ZM263.256 516.8H266.28L265.74 534.44H263.76L263.256 516.8ZM264.768 542.18C264.24 542.18 263.784 542 263.4 541.64C263.04 541.256 262.86 540.812 262.86 540.308C262.86 539.78 263.04 539.348 263.4 539.012C263.76 538.652 264.216 538.472 264.768 538.472C265.296 538.472 265.74 538.652 266.1 539.012C266.46 539.348 266.64 539.78 266.64 540.308C266.64 540.812 266.46 541.256 266.1 541.64C265.74 542 265.296 542.18 264.768 542.18ZM300.965 516.8V542H298.337V534.368H290.813C290.477 534.368 289.997 534.344 289.373 534.296L284.081 542H281.237L286.961 533.828C285.113 533.276 283.697 532.304 282.713 530.912C281.729 529.496 281.237 527.768 281.237 525.728C281.237 522.896 282.125 520.7 283.901 519.14C285.701 517.58 288.125 516.8 291.173 516.8H300.965ZM283.901 525.656C283.901 527.72 284.501 529.316 285.701 530.444C286.925 531.548 288.701 532.1 291.029 532.1H298.337V519.104H291.281C288.929 519.104 287.105 519.668 285.809 520.796C284.537 521.9 283.901 523.52 283.901 525.656ZM329.05 516.584C332.314 516.584 334.882 517.544 336.754 519.464C338.65 521.36 339.598 524.108 339.598 527.708V542H336.97V534.584H321.13V542H318.538V527.708C318.538 524.108 319.474 521.36 321.346 519.464C323.242 517.544 325.81 516.584 329.05 516.584ZM336.97 532.28V527.456C336.97 524.648 336.274 522.536 334.882 521.12C333.49 519.68 331.546 518.96 329.05 518.96C326.554 518.96 324.61 519.68 323.218 521.12C321.826 522.536 321.13 524.648 321.13 527.456V532.28H336.97ZM352.803 519.104V539.696H357.915V542H345.063V539.696H350.175V519.104H345.063V516.8H357.915V519.104H352.803ZM361.67 531.128H371.102V533.36H361.67V531.128ZM377.36 516.8H380.024V539.696H394.136V542H377.36V516.8ZM398.019 523.064H400.575V542H398.019V523.064ZM399.315 518.924C398.787 518.924 398.343 518.744 397.983 518.384C397.623 518.024 397.443 517.592 397.443 517.088C397.443 516.608 397.623 516.188 397.983 515.828C398.343 515.468 398.787 515.288 399.315 515.288C399.843 515.288 400.287 515.468 400.647 515.828C401.007 516.164 401.187 516.572 401.187 517.052C401.187 517.58 401.007 518.024 400.647 518.384C400.287 518.744 399.843 518.924 399.315 518.924ZM417.335 522.92C419.711 522.92 421.595 523.616 422.987 525.008C424.403 526.376 425.111 528.38 425.111 531.02V542H422.555V531.272C422.555 529.304 422.063 527.804 421.079 526.772C420.095 525.74 418.691 525.224 416.867 525.224C414.827 525.224 413.207 525.836 412.007 527.06C410.831 528.26 410.243 529.928 410.243 532.064V542H407.687V523.064H410.135V526.556C410.831 525.404 411.791 524.516 413.015 523.892C414.263 523.244 415.703 522.92 417.335 522.92ZM449.653 523.064V539.696C449.653 542.912 448.861 545.288 447.277 546.824C445.717 548.384 443.353 549.164 440.185 549.164C438.433 549.164 436.765 548.9 435.181 548.372C433.621 547.868 432.349 547.16 431.365 546.248L432.661 544.304C433.573 545.12 434.677 545.756 435.973 546.212C437.293 546.668 438.673 546.896 440.113 546.896C442.513 546.896 444.277 546.332 445.405 545.204C446.533 544.1 447.097 542.372 447.097 540.02V537.608C446.305 538.808 445.261 539.72 443.965 540.344C442.693 540.968 441.277 541.28 439.717 541.28C437.941 541.28 436.321 540.896 434.857 540.128C433.417 539.336 432.277 538.244 431.437 536.852C430.621 535.436 430.213 533.84 430.213 532.064C430.213 530.288 430.621 528.704 431.437 527.312C432.277 525.92 433.417 524.84 434.857 524.072C436.297 523.304 437.917 522.92 439.717 522.92C441.325 522.92 442.777 523.244 444.073 523.892C445.369 524.54 446.413 525.476 447.205 526.7V523.064H449.653ZM439.969 539.012C441.337 539.012 442.573 538.724 443.677 538.148C444.781 537.548 445.633 536.72 446.233 535.664C446.857 534.608 447.169 533.408 447.169 532.064C447.169 530.72 446.857 529.532 446.233 528.5C445.633 527.444 444.781 526.628 443.677 526.052C442.597 525.452 441.361 525.152 439.969 525.152C438.601 525.152 437.365 525.44 436.261 526.016C435.181 526.592 434.329 527.408 433.705 528.464C433.105 529.52 432.805 530.72 432.805 532.064C432.805 533.408 433.105 534.608 433.705 535.664C434.329 536.72 435.181 537.548 436.261 538.148C437.365 538.724 438.601 539.012 439.969 539.012ZM482.962 523.064V542H480.514V538.544C479.842 539.696 478.918 540.596 477.742 541.244C476.566 541.868 475.222 542.18 473.71 542.18C471.214 542.18 469.246 541.496 467.806 540.128C466.39 538.736 465.682 536.708 465.682 534.044V523.064H468.238V533.792C468.238 535.784 468.73 537.296 469.714 538.328C470.698 539.36 472.114 539.876 473.962 539.876C475.954 539.876 477.526 539.276 478.678 538.076C479.83 536.852 480.406 535.16 480.406 533V523.064H482.962ZM514.201 523.064V542H511.861V535.736H505.921H505.201L500.809 542H498.037L502.753 535.376C501.289 534.968 500.161 534.272 499.369 533.288C498.577 532.304 498.181 531.056 498.181 529.544C498.181 527.432 498.901 525.824 500.341 524.72C501.781 523.616 503.749 523.064 506.245 523.064H514.201ZM500.773 529.616C500.773 532.424 502.561 533.828 506.137 533.828H511.861V525.332H506.317C502.621 525.332 500.773 526.76 500.773 529.616ZM104.267 567.064V586H101.711V569.332H89.8307V586H87.2747V567.064H104.267ZM119.344 586.18C117.52 586.18 115.876 585.772 114.412 584.956C112.948 584.116 111.796 582.964 110.956 581.5C110.116 580.036 109.696 578.38 109.696 576.532C109.696 574.684 110.116 573.028 110.956 571.564C111.796 570.1 112.948 568.96 114.412 568.144C115.876 567.328 117.52 566.92 119.344 566.92C121.168 566.92 122.812 567.328 124.276 568.144C125.74 568.96 126.88 570.1 127.696 571.564C128.536 573.028 128.956 574.684 128.956 576.532C128.956 578.38 128.536 580.036 127.696 581.5C126.88 582.964 125.74 584.116 124.276 584.956C122.812 585.772 121.168 586.18 119.344 586.18ZM119.344 583.912C120.688 583.912 121.888 583.612 122.944 583.012C124.024 582.388 124.864 581.512 125.464 580.384C126.064 579.256 126.364 577.972 126.364 576.532C126.364 575.092 126.064 573.808 125.464 572.68C124.864 571.552 124.024 570.688 122.944 570.088C121.888 569.464 120.688 569.152 119.344 569.152C118 569.152 116.788 569.464 115.708 570.088C114.652 570.688 113.812 571.552 113.188 572.68C112.588 573.808 112.288 575.092 112.288 576.532C112.288 577.972 112.588 579.256 113.188 580.384C113.812 581.512 114.652 582.388 115.708 583.012C116.788 583.612 118 583.912 119.344 583.912ZM155.587 567.064V586H153.247V571.024L145.579 583.696H144.427L136.759 570.988V586H134.419V567.064H137.011L145.039 580.708L153.211 567.064H155.587ZM170.673 586.18C168.849 586.18 167.205 585.772 165.741 584.956C164.277 584.116 163.125 582.964 162.285 581.5C161.445 580.036 161.025 578.38 161.025 576.532C161.025 574.684 161.445 573.028 162.285 571.564C163.125 570.1 164.277 568.96 165.741 568.144C167.205 567.328 168.849 566.92 170.673 566.92C172.497 566.92 174.141 567.328 175.605 568.144C177.069 568.96 178.209 570.1 179.025 571.564C179.865 573.028 180.285 574.684 180.285 576.532C180.285 578.38 179.865 580.036 179.025 581.5C178.209 582.964 177.069 584.116 175.605 584.956C174.141 585.772 172.497 586.18 170.673 586.18ZM170.673 583.912C172.017 583.912 173.217 583.612 174.273 583.012C175.353 582.388 176.193 581.512 176.793 580.384C177.393 579.256 177.693 577.972 177.693 576.532C177.693 575.092 177.393 573.808 176.793 572.68C176.193 571.552 175.353 570.688 174.273 570.088C173.217 569.464 172.017 569.152 170.673 569.152C169.329 569.152 168.117 569.464 167.037 570.088C165.981 570.688 165.141 571.552 164.517 572.68C163.917 573.808 163.617 575.092 163.617 576.532C163.617 577.972 163.917 579.256 164.517 580.384C165.141 581.512 165.981 582.388 167.037 583.012C168.117 583.612 169.329 583.912 170.673 583.912ZM199.139 569.332H188.303V586H185.747V567.064H199.139V569.332ZM219.825 567.064V583.696C219.825 586.912 219.093 589.288 217.629 590.824C216.165 592.384 213.957 593.164 211.005 593.164C209.349 593.164 207.777 592.9 206.289 592.372C204.825 591.868 203.637 591.16 202.725 590.248L204.021 588.304C204.837 589.12 205.845 589.756 207.045 590.212C208.245 590.668 209.529 590.896 210.897 590.896C213.081 590.896 214.689 590.332 215.721 589.204C216.753 588.1 217.269 586.372 217.269 584.02V581.824C216.597 582.928 215.673 583.78 214.497 584.38C213.345 584.98 212.037 585.28 210.573 585.28C208.101 585.28 206.145 584.596 204.705 583.228C203.289 581.836 202.581 579.808 202.581 577.144V567.064H205.137V576.892C205.137 578.884 205.629 580.396 206.613 581.428C207.597 582.46 209.001 582.976 210.825 582.976C212.817 582.976 214.389 582.376 215.541 581.176C216.693 579.952 217.269 578.26 217.269 576.1V567.064H219.825ZM260.094 566.92C262.47 566.92 264.33 567.604 265.674 568.972C267.042 570.34 267.726 572.356 267.726 575.02V586H265.17V575.272C265.17 573.304 264.69 571.804 263.73 570.772C262.794 569.74 261.462 569.224 259.734 569.224C257.766 569.224 256.218 569.836 255.09 571.06C253.962 572.26 253.398 573.928 253.398 576.064V586H250.842V575.272C250.842 573.304 250.362 571.804 249.402 570.772C248.466 569.74 247.122 569.224 245.37 569.224C243.426 569.224 241.878 569.836 240.726 571.06C239.598 572.26 239.034 573.928 239.034 576.064V586H236.478V567.064H238.926V570.52C239.598 569.368 240.534 568.48 241.734 567.856C242.934 567.232 244.314 566.92 245.874 566.92C247.458 566.92 248.826 567.256 249.978 567.928C251.154 568.6 252.03 569.596 252.606 570.916C253.302 569.668 254.298 568.696 255.594 568C256.914 567.28 258.414 566.92 260.094 566.92ZM282.439 583.912C283.615 583.912 284.695 583.708 285.679 583.3C286.687 582.868 287.539 582.244 288.235 581.428L289.675 583.084C288.835 584.092 287.791 584.86 286.543 585.388C285.295 585.916 283.915 586.18 282.403 586.18C280.459 586.18 278.731 585.772 277.219 584.956C275.707 584.116 274.531 582.964 273.691 581.5C272.851 580.036 272.431 578.38 272.431 576.532C272.431 574.684 272.827 573.028 273.619 571.564C274.435 570.1 275.551 568.96 276.967 568.144C278.383 567.328 279.991 566.92 281.791 566.92C283.471 566.92 284.983 567.304 286.327 568.072C287.695 568.84 288.775 569.908 289.567 571.276C290.383 572.644 290.815 574.204 290.863 575.956L275.311 578.98C275.791 580.516 276.655 581.728 277.903 582.616C279.175 583.48 280.687 583.912 282.439 583.912ZM281.791 569.116C280.471 569.116 279.283 569.428 278.227 570.052C277.195 570.652 276.379 571.504 275.779 572.608C275.203 573.688 274.915 574.936 274.915 576.352C274.915 576.712 274.927 576.976 274.951 577.144L288.307 574.552C288.019 572.968 287.287 571.672 286.111 570.664C284.935 569.632 283.495 569.116 281.791 569.116ZM305.318 567.532C307.07 567.532 308.63 567.928 309.998 568.72C311.39 569.488 312.47 570.58 313.238 571.996C314.006 573.388 314.39 574.984 314.39 576.784C314.39 578.632 313.982 580.276 313.166 581.716C312.374 583.132 311.258 584.236 309.818 585.028C308.378 585.82 306.722 586.216 304.85 586.216C301.706 586.216 299.27 585.112 297.542 582.904C295.814 580.696 294.95 577.648 294.95 573.76C294.95 569.704 295.718 566.596 297.254 564.436C298.814 562.276 301.238 560.812 304.526 560.044L313.022 558.1L313.454 560.44L305.462 562.276C302.75 562.876 300.758 563.944 299.486 565.48C298.214 566.992 297.518 569.236 297.398 572.212C298.166 570.748 299.234 569.608 300.602 568.792C301.97 567.952 303.542 567.532 305.318 567.532ZM304.922 584.092C306.242 584.092 307.418 583.792 308.45 583.192C309.506 582.568 310.322 581.704 310.898 580.6C311.498 579.496 311.798 578.248 311.798 576.856C311.798 575.464 311.51 574.24 310.934 573.184C310.358 572.128 309.542 571.312 308.486 570.736C307.454 570.136 306.266 569.836 304.922 569.836C303.578 569.836 302.378 570.136 301.322 570.736C300.29 571.312 299.474 572.128 298.874 573.184C298.298 574.24 298.01 575.464 298.01 576.856C298.01 578.248 298.298 579.496 298.874 580.6C299.474 581.704 300.302 582.568 301.358 583.192C302.414 583.792 303.602 584.092 304.922 584.092ZM327.896 583.912C329.072 583.912 330.152 583.708 331.136 583.3C332.144 582.868 332.996 582.244 333.692 581.428L335.132 583.084C334.292 584.092 333.248 584.86 332 585.388C330.752 585.916 329.372 586.18 327.86 586.18C325.916 586.18 324.188 585.772 322.676 584.956C321.164 584.116 319.988 582.964 319.148 581.5C318.308 580.036 317.888 578.38 317.888 576.532C317.888 574.684 318.284 573.028 319.076 571.564C319.892 570.1 321.008 568.96 322.424 568.144C323.84 567.328 325.448 566.92 327.248 566.92C328.928 566.92 330.44 567.304 331.784 568.072C333.152 568.84 334.232 569.908 335.024 571.276C335.84 572.644 336.272 574.204 336.32 575.956L320.768 578.98C321.248 580.516 322.112 581.728 323.36 582.616C324.632 583.48 326.144 583.912 327.896 583.912ZM327.248 569.116C325.928 569.116 324.74 569.428 323.684 570.052C322.652 570.652 321.836 571.504 321.236 572.608C320.66 573.688 320.372 574.936 320.372 576.352C320.372 576.712 320.384 576.976 320.408 577.144L333.764 574.552C333.476 572.968 332.744 571.672 331.568 570.664C330.392 569.632 328.952 569.116 327.248 569.116ZM363.077 576.208C365.645 576.808 366.929 578.356 366.929 580.852C366.929 582.508 366.317 583.78 365.093 584.668C363.869 585.556 362.045 586 359.621 586H351.017V567.064H359.369C361.529 567.064 363.221 567.484 364.445 568.324C365.669 569.164 366.281 570.364 366.281 571.924C366.281 572.956 365.993 573.844 365.417 574.588C364.865 575.308 364.085 575.848 363.077 576.208ZM353.501 575.488H359.189C360.653 575.488 361.769 575.212 362.537 574.66C363.329 574.108 363.725 573.304 363.725 572.248C363.725 571.192 363.329 570.4 362.537 569.872C361.769 569.344 360.653 569.08 359.189 569.08H353.501V575.488ZM359.513 583.984C361.145 583.984 362.369 583.72 363.185 583.192C364.001 582.664 364.409 581.836 364.409 580.708C364.409 579.58 364.037 578.752 363.293 578.224C362.549 577.672 361.373 577.396 359.765 577.396H353.501V583.984H359.513ZM380.443 586.396C377.851 586.396 375.859 585.76 374.467 584.488C373.099 583.192 372.415 581.368 372.415 579.016V567.064H374.971V574.948C375.547 574.252 376.351 573.676 377.383 573.22C378.415 572.764 379.615 572.536 380.983 572.536C383.287 572.536 385.075 573.136 386.347 574.336C387.643 575.512 388.291 577.12 388.291 579.16C388.291 580.576 387.967 581.836 387.319 582.94C386.695 584.02 385.783 584.872 384.583 585.496C383.407 586.096 382.027 586.396 380.443 586.396ZM391.387 567.064H393.943V586H391.387V567.064ZM380.515 584.416C382.147 584.416 383.419 583.936 384.331 582.976C385.243 581.992 385.699 580.744 385.699 579.232C385.699 577.816 385.231 576.676 384.295 575.812C383.359 574.924 382.039 574.48 380.335 574.48C379.087 574.48 377.995 574.744 377.059 575.272C376.147 575.8 375.451 576.532 374.971 577.468V579.196C374.971 580.828 375.439 582.112 376.375 583.048C377.335 583.96 378.715 584.416 380.515 584.416ZM418.212 567.064V583.696C418.212 586.912 417.48 589.288 416.016 590.824C414.552 592.384 412.344 593.164 409.392 593.164C407.736 593.164 406.164 592.9 404.676 592.372C403.212 591.868 402.024 591.16 401.112 590.248L402.408 588.304C403.224 589.12 404.232 589.756 405.432 590.212C406.632 590.668 407.916 590.896 409.284 590.896C411.468 590.896 413.076 590.332 414.108 589.204C415.14 588.1 415.656 586.372 415.656 584.02V581.824C414.984 582.928 414.06 583.78 412.884 584.38C411.732 584.98 410.424 585.28 408.96 585.28C406.488 585.28 404.532 584.596 403.092 583.228C401.676 581.836 400.968 579.808 400.968 577.144V567.064H403.524V576.892C403.524 578.884 404.016 580.396 405 581.428C405.984 582.46 407.388 582.976 409.212 582.976C411.204 582.976 412.776 582.376 413.928 581.176C415.08 579.952 415.656 578.26 415.656 576.1V567.064H418.212ZM439.735 567.064V586H437.179V578.116C434.995 579.076 432.847 579.556 430.735 579.556C428.455 579.556 426.679 579.04 425.407 578.008C424.135 576.952 423.499 575.38 423.499 573.292V567.064H426.055V573.148C426.055 574.564 426.511 575.644 427.423 576.388C428.335 577.108 429.595 577.468 431.203 577.468C432.979 577.468 434.971 577 437.179 576.064V567.064H439.735ZM463.661 567.064V586H461.213V582.544C460.541 583.696 459.617 584.596 458.441 585.244C457.265 585.868 455.921 586.18 454.409 586.18C451.913 586.18 449.945 585.496 448.505 584.128C447.089 582.736 446.381 580.708 446.381 578.044V567.064H448.937V577.792C448.937 579.784 449.429 581.296 450.413 582.328C451.397 583.36 452.813 583.876 454.661 583.876C456.653 583.876 458.225 583.276 459.377 582.076C460.529 580.852 461.105 579.16 461.105 577V567.064H463.661ZM494.551 566.92C496.927 566.92 498.787 567.604 500.131 568.972C501.499 570.34 502.183 572.356 502.183 575.02V586H499.627V575.272C499.627 573.304 499.147 571.804 498.187 570.772C497.251 569.74 495.919 569.224 494.191 569.224C492.223 569.224 490.675 569.836 489.547 571.06C488.419 572.26 487.855 573.928 487.855 576.064V586H485.299V575.272C485.299 573.304 484.819 571.804 483.859 570.772C482.923 569.74 481.579 569.224 479.827 569.224C477.883 569.224 476.335 569.836 475.183 571.06C474.055 572.26 473.491 573.928 473.491 576.064V586H470.935V567.064H473.383V570.52C474.055 569.368 474.991 568.48 476.191 567.856C477.391 567.232 478.771 566.92 480.331 566.92C481.915 566.92 483.283 567.256 484.435 567.928C485.611 568.6 486.487 569.596 487.063 570.916C487.759 569.668 488.755 568.696 490.051 568C491.371 567.28 492.871 566.92 494.551 566.92ZM516.5 586.396C513.908 586.396 511.904 585.748 510.488 584.452C509.072 583.156 508.364 581.344 508.364 579.016V567.064H510.92V574.948C511.544 574.204 512.396 573.616 513.476 573.184C514.58 572.752 515.804 572.536 517.148 572.536C519.5 572.536 521.324 573.136 522.62 574.336C523.94 575.536 524.6 577.144 524.6 579.16C524.6 581.344 523.88 583.096 522.44 584.416C521 585.736 519.02 586.396 516.5 586.396ZM516.536 584.416C518.24 584.416 519.572 583.936 520.532 582.976C521.516 582.016 522.008 580.768 522.008 579.232C522.008 577.792 521.528 576.64 520.568 575.776C519.608 574.912 518.252 574.48 516.5 574.48C515.204 574.48 514.064 574.744 513.08 575.272C512.12 575.8 511.4 576.532 510.92 577.468V579.196C510.92 580.828 511.412 582.112 512.396 583.048C513.404 583.96 514.784 584.416 516.536 584.416ZM153.842 611.064V630H151.394V626.256C150.626 627.528 149.606 628.5 148.334 629.172C147.086 629.844 145.67 630.18 144.086 630.18C142.31 630.18 140.702 629.772 139.262 628.956C137.822 628.14 136.694 627 135.878 625.536C135.062 624.072 134.654 622.404 134.654 620.532C134.654 618.66 135.062 616.992 135.878 615.528C136.694 614.064 137.822 612.936 139.262 612.144C140.702 611.328 142.31 610.92 144.086 610.92C145.622 610.92 147.002 611.244 148.226 611.892C149.474 612.516 150.494 613.44 151.286 614.664V611.064H153.842ZM144.302 627.912C145.622 627.912 146.81 627.612 147.866 627.012C148.946 626.388 149.786 625.512 150.386 624.384C151.01 623.256 151.322 621.972 151.322 620.532C151.322 619.092 151.01 617.808 150.386 616.68C149.786 615.552 148.946 614.688 147.866 614.088C146.81 613.464 145.622 613.152 144.302 613.152C142.958 613.152 141.746 613.464 140.666 614.088C139.61 614.688 138.77 615.552 138.146 616.68C137.546 617.808 137.246 619.092 137.246 620.532C137.246 621.972 137.546 623.256 138.146 624.384C138.77 625.512 139.61 626.388 140.666 627.012C141.746 627.612 142.958 627.912 144.302 627.912ZM161.032 611.064H163.588V619.452H175.504V611.064H178.06V630H175.504V621.648H163.588V630H161.032V611.064ZM198.717 613.332H187.881V630H185.325V611.064H198.717V613.332ZM216.731 611.064V630H214.175V613.332H205.103L204.851 618.012C204.659 621.948 204.203 624.972 203.483 627.084C202.763 629.196 201.479 630.252 199.631 630.252C199.127 630.252 198.515 630.156 197.795 629.964L197.975 627.768C198.407 627.864 198.707 627.912 198.875 627.912C199.859 627.912 200.603 627.456 201.107 626.544C201.611 625.632 201.947 624.504 202.115 623.16C202.283 621.816 202.427 620.04 202.547 617.832L202.871 611.064H216.731ZM240.665 611.064V630H238.217V626.544C237.545 627.696 236.621 628.596 235.445 629.244C234.269 629.868 232.925 630.18 231.413 630.18C228.917 630.18 226.949 629.496 225.509 628.128C224.093 626.736 223.385 624.708 223.385 622.044V611.064H225.941V621.792C225.941 623.784 226.433 625.296 227.417 626.328C228.401 627.36 229.817 627.876 231.665 627.876C233.657 627.876 235.229 627.276 236.381 626.076C237.533 624.852 238.109 623.16 238.109 621V611.064H240.665ZM264.607 611.064V630H262.159V626.544C261.487 627.696 260.563 628.596 259.387 629.244C258.211 629.868 256.867 630.18 255.355 630.18C252.859 630.18 250.891 629.496 249.451 628.128C248.035 626.736 247.327 624.708 247.327 622.044V611.064H249.883V621.792C249.883 623.784 250.375 625.296 251.359 626.328C252.343 627.36 253.759 627.876 255.607 627.876C257.599 627.876 259.171 627.276 260.323 626.076C261.475 624.852 262.051 623.16 262.051 621V611.064H264.607ZM255.967 608.364C254.335 608.364 253.039 607.956 252.079 607.14C251.119 606.324 250.627 605.172 250.603 603.684H252.439C252.463 604.62 252.799 605.376 253.447 605.952C254.095 606.504 254.935 606.78 255.967 606.78C256.999 606.78 257.839 606.504 258.487 605.952C259.159 605.376 259.507 604.62 259.531 603.684H261.367C261.343 605.172 260.839 606.324 259.855 607.14C258.895 607.956 257.599 608.364 255.967 608.364ZM279.8 630.18C277.928 630.18 276.248 629.772 274.76 628.956C273.296 628.14 272.144 627 271.304 625.536C270.464 624.048 270.044 622.38 270.044 620.532C270.044 618.684 270.464 617.028 271.304 615.564C272.144 614.1 273.296 612.96 274.76 612.144C276.248 611.328 277.928 610.92 279.8 610.92C281.432 610.92 282.884 611.244 284.156 611.892C285.452 612.516 286.472 613.44 287.216 614.664L285.308 615.96C284.684 615.024 283.892 614.328 282.932 613.872C281.972 613.392 280.928 613.152 279.8 613.152C278.432 613.152 277.196 613.464 276.092 614.088C275.012 614.688 274.16 615.552 273.536 616.68C272.936 617.808 272.636 619.092 272.636 620.532C272.636 621.996 272.936 623.292 273.536 624.42C274.16 625.524 275.012 626.388 276.092 627.012C277.196 627.612 278.432 627.912 279.8 627.912C280.928 627.912 281.972 627.684 282.932 627.228C283.892 626.772 284.684 626.076 285.308 625.14L287.216 626.436C286.472 627.66 285.452 628.596 284.156 629.244C282.86 629.868 281.408 630.18 279.8 630.18ZM299.041 621.576H294.721V630H292.165V611.064H294.721V619.38H299.077L305.737 611.064H308.509L301.057 620.244L309.049 630H306.025L299.041 621.576ZM329.4 611.064V630H326.952V626.544C326.28 627.696 325.356 628.596 324.18 629.244C323.004 629.868 321.66 630.18 320.148 630.18C317.652 630.18 315.684 629.496 314.244 628.128C312.828 626.736 312.12 624.708 312.12 622.044V611.064H314.676V621.792C314.676 623.784 315.168 625.296 316.152 626.328C317.136 627.36 318.552 627.876 320.4 627.876C322.392 627.876 323.964 627.276 325.116 626.076C326.268 624.852 326.844 623.16 326.844 621V611.064H329.4ZM353.341 611.064V630H350.893V626.544C350.221 627.696 349.297 628.596 348.121 629.244C346.945 629.868 345.601 630.18 344.089 630.18C341.593 630.18 339.625 629.496 338.185 628.128C336.769 626.736 336.061 624.708 336.061 622.044V611.064H338.617V621.792C338.617 623.784 339.109 625.296 340.093 626.328C341.077 627.36 342.493 627.876 344.341 627.876C346.333 627.876 347.905 627.276 349.057 626.076C350.209 624.852 350.785 623.16 350.785 621V611.064H353.341ZM344.701 608.364C343.069 608.364 341.773 607.956 340.813 607.14C339.853 606.324 339.361 605.172 339.337 603.684H341.173C341.197 604.62 341.533 605.376 342.181 605.952C342.829 606.504 343.669 606.78 344.701 606.78C345.733 606.78 346.573 606.504 347.221 605.952C347.893 605.376 348.241 604.62 348.265 603.684H350.101C350.077 605.172 349.573 606.324 348.589 607.14C347.629 607.956 346.333 608.364 344.701 608.364ZM384.58 611.064V630H382.24V623.736H376.3H375.58L371.188 630H368.416L373.132 623.376C371.668 622.968 370.54 622.272 369.748 621.288C368.956 620.304 368.56 619.056 368.56 617.544C368.56 615.432 369.28 613.824 370.72 612.72C372.16 611.616 374.128 611.064 376.624 611.064H384.58ZM371.152 617.616C371.152 620.424 372.94 621.828 376.516 621.828H382.24V613.332H376.696C373 613.332 371.152 614.76 371.152 617.616ZM400.698 620.136C402.042 620.448 403.074 620.988 403.794 621.756C404.538 622.524 404.91 623.46 404.91 624.564C404.91 625.668 404.526 626.652 403.758 627.516C403.014 628.38 401.994 629.052 400.698 629.532C399.402 629.988 397.974 630.216 396.414 630.216C395.046 630.216 393.702 630.024 392.382 629.64C391.062 629.232 389.91 628.644 388.926 627.876L389.79 625.968C390.654 626.616 391.662 627.12 392.814 627.48C393.966 627.84 395.13 628.02 396.306 628.02C398.058 628.02 399.486 627.696 400.59 627.048C401.718 626.376 402.282 625.476 402.282 624.348C402.282 623.34 401.826 622.56 400.914 622.008C400.002 621.432 398.754 621.144 397.17 621.144H393.93V619.272H397.026C398.442 619.272 399.582 619.008 400.446 618.48C401.31 617.928 401.742 617.196 401.742 616.284C401.742 615.276 401.25 614.484 400.266 613.908C399.306 613.332 398.046 613.044 396.486 613.044C394.446 613.044 392.43 613.56 390.438 614.592L389.718 612.612C391.974 611.436 394.314 610.848 396.738 610.848C398.178 610.848 399.474 611.064 400.626 611.496C401.802 611.904 402.714 612.492 403.362 613.26C404.034 614.028 404.37 614.916 404.37 615.924C404.37 616.884 404.034 617.736 403.362 618.48C402.714 619.224 401.826 619.776 400.698 620.136ZM418.236 630.396C415.644 630.396 413.652 629.76 412.26 628.488C410.892 627.192 410.208 625.368 410.208 623.016V611.064H412.764V618.948C413.34 618.252 414.144 617.676 415.176 617.22C416.208 616.764 417.408 616.536 418.776 616.536C421.08 616.536 422.868 617.136 424.14 618.336C425.436 619.512 426.084 621.12 426.084 623.16C426.084 624.576 425.76 625.836 425.112 626.94C424.488 628.02 423.576 628.872 422.376 629.496C421.2 630.096 419.82 630.396 418.236 630.396ZM429.18 611.064H431.736V630H429.18V611.064ZM418.308 628.416C419.94 628.416 421.212 627.936 422.124 626.976C423.036 625.992 423.492 624.744 423.492 623.232C423.492 621.816 423.024 620.676 422.088 619.812C421.152 618.924 419.832 618.48 418.128 618.48C416.88 618.48 415.788 618.744 414.852 619.272C413.94 619.8 413.244 620.532 412.764 621.468V623.196C412.764 624.828 413.232 626.112 414.168 627.048C415.128 627.96 416.508 628.416 418.308 628.416ZM445.889 621.576H441.569V630H439.013V611.064H441.569V619.38H445.925L452.585 611.064H455.357L447.905 620.244L455.897 630H452.873L445.889 621.576ZM477.273 630.18C475.401 630.18 473.721 629.772 472.233 628.956C470.769 628.14 469.617 627 468.777 625.536C467.937 624.048 467.517 622.38 467.517 620.532C467.517 618.684 467.937 617.028 468.777 615.564C469.617 614.1 470.769 612.96 472.233 612.144C473.721 611.328 475.401 610.92 477.273 610.92C478.905 610.92 480.357 611.244 481.629 611.892C482.925 612.516 483.945 613.44 484.689 614.664L482.781 615.96C482.157 615.024 481.365 614.328 480.405 613.872C479.445 613.392 478.401 613.152 477.273 613.152C475.905 613.152 474.669 613.464 473.565 614.088C472.485 614.688 471.633 615.552 471.009 616.68C470.409 617.808 470.109 619.092 470.109 620.532C470.109 621.996 470.409 623.292 471.009 624.42C471.633 625.524 472.485 626.388 473.565 627.012C474.669 627.612 475.905 627.912 477.273 627.912C478.401 627.912 479.445 627.684 480.405 627.228C481.365 626.772 482.157 626.076 482.781 625.14L484.689 626.436C483.945 627.66 482.925 628.596 481.629 629.244C480.333 629.868 478.881 630.18 477.273 630.18ZM131.46 655.064V674H128.904V657.332H117.024V674H114.468V655.064H131.46ZM146.538 674.18C144.714 674.18 143.07 673.772 141.606 672.956C140.142 672.116 138.99 670.964 138.15 669.5C137.31 668.036 136.89 666.38 136.89 664.532C136.89 662.684 137.31 661.028 138.15 659.564C138.99 658.1 140.142 656.96 141.606 656.144C143.07 655.328 144.714 654.92 146.538 654.92C148.362 654.92 150.006 655.328 151.47 656.144C152.934 656.96 154.074 658.1 154.89 659.564C155.73 661.028 156.15 662.684 156.15 664.532C156.15 666.38 155.73 668.036 154.89 669.5C154.074 670.964 152.934 672.116 151.47 672.956C150.006 673.772 148.362 674.18 146.538 674.18ZM146.538 671.912C147.882 671.912 149.082 671.612 150.138 671.012C151.218 670.388 152.058 669.512 152.658 668.384C153.258 667.256 153.558 665.972 153.558 664.532C153.558 663.092 153.258 661.808 152.658 660.68C152.058 659.552 151.218 658.688 150.138 658.088C149.082 657.464 147.882 657.152 146.538 657.152C145.194 657.152 143.982 657.464 142.902 658.088C141.846 658.688 141.006 659.552 140.382 660.68C139.782 661.808 139.482 663.092 139.482 664.532C139.482 665.972 139.782 667.256 140.382 668.384C141.006 669.512 141.846 670.388 142.902 671.012C143.982 671.612 145.194 671.912 146.538 671.912ZM182.781 655.064V674H180.441V659.024L172.773 671.696H171.621L163.953 658.988V674H161.613V655.064H164.205L172.233 668.708L180.405 655.064H182.781ZM197.866 674.18C196.042 674.18 194.398 673.772 192.934 672.956C191.47 672.116 190.318 670.964 189.478 669.5C188.638 668.036 188.218 666.38 188.218 664.532C188.218 662.684 188.638 661.028 189.478 659.564C190.318 658.1 191.47 656.96 192.934 656.144C194.398 655.328 196.042 654.92 197.866 654.92C199.69 654.92 201.334 655.328 202.798 656.144C204.262 656.96 205.402 658.1 206.218 659.564C207.058 661.028 207.478 662.684 207.478 664.532C207.478 666.38 207.058 668.036 206.218 669.5C205.402 670.964 204.262 672.116 202.798 672.956C201.334 673.772 199.69 674.18 197.866 674.18ZM197.866 671.912C199.21 671.912 200.41 671.612 201.466 671.012C202.546 670.388 203.386 669.512 203.986 668.384C204.586 667.256 204.886 665.972 204.886 664.532C204.886 663.092 204.586 661.808 203.986 660.68C203.386 659.552 202.546 658.688 201.466 658.088C200.41 657.464 199.21 657.152 197.866 657.152C196.522 657.152 195.31 657.464 194.23 658.088C193.174 658.688 192.334 659.552 191.71 660.68C191.11 661.808 190.81 663.092 190.81 664.532C190.81 665.972 191.11 667.256 191.71 668.384C192.334 669.512 193.174 670.388 194.23 671.012C195.31 671.612 196.522 671.912 197.866 671.912ZM239.077 655.064V674H212.941V655.064H215.497V671.768H224.785V655.064H227.341V671.768H236.521V655.064H239.077ZM241.993 671.768V678.14H239.581V674H236.377V671.768H241.993ZM254.006 674.396C251.414 674.396 249.41 673.748 247.994 672.452C246.578 671.156 245.87 669.344 245.87 667.016V655.064H248.426V662.948C249.05 662.204 249.902 661.616 250.982 661.184C252.086 660.752 253.31 660.536 254.654 660.536C257.006 660.536 258.83 661.136 260.126 662.336C261.446 663.536 262.106 665.144 262.106 667.16C262.106 669.344 261.386 671.096 259.946 672.416C258.506 673.736 256.526 674.396 254.006 674.396ZM254.042 672.416C255.746 672.416 257.078 671.936 258.038 670.976C259.022 670.016 259.514 668.768 259.514 667.232C259.514 665.792 259.034 664.64 258.074 663.776C257.114 662.912 255.758 662.48 254.006 662.48C252.71 662.48 251.57 662.744 250.586 663.272C249.626 663.8 248.906 664.532 248.426 665.468V667.196C248.426 668.828 248.918 670.112 249.902 671.048C250.91 671.96 252.29 672.416 254.042 672.416ZM283.353 654.92C285.129 654.92 286.725 655.328 288.141 656.144C289.581 656.96 290.709 658.1 291.525 659.564C292.341 661.028 292.749 662.684 292.749 664.532C292.749 666.38 292.341 668.036 291.525 669.5C290.709 670.964 289.581 672.116 288.141 672.956C286.725 673.772 285.129 674.18 283.353 674.18C281.673 674.18 280.149 673.82 278.781 673.1C277.413 672.356 276.297 671.336 275.433 670.04C274.593 668.744 274.101 667.256 273.957 665.576H269.637V674H267.081V655.064H269.637V663.236H273.993C274.185 661.604 274.701 660.164 275.541 658.916C276.405 657.644 277.509 656.66 278.853 655.964C280.197 655.268 281.697 654.92 283.353 654.92ZM283.353 671.948C284.649 671.948 285.813 671.636 286.845 671.012C287.901 670.388 288.729 669.512 289.329 668.384C289.929 667.256 290.229 665.972 290.229 664.532C290.229 663.092 289.929 661.808 289.329 660.68C288.729 659.552 287.901 658.688 286.845 658.088C285.813 657.464 284.649 657.152 283.353 657.152C282.057 657.152 280.881 657.464 279.825 658.088C278.793 658.688 277.977 659.552 277.377 660.68C276.777 661.808 276.477 663.092 276.477 664.532C276.477 665.972 276.777 667.256 277.377 668.384C277.977 669.512 278.793 670.388 279.825 671.012C280.881 671.636 282.057 671.948 283.353 671.948ZM315.464 674.18C313.64 674.18 311.996 673.772 310.532 672.956C309.068 672.116 307.916 670.964 307.076 669.5C306.236 668.036 305.816 666.38 305.816 664.532C305.816 662.684 306.236 661.028 307.076 659.564C307.916 658.1 309.068 656.96 310.532 656.144C311.996 655.328 313.64 654.92 315.464 654.92C317.288 654.92 318.932 655.328 320.396 656.144C321.86 656.96 323 658.1 323.816 659.564C324.656 661.028 325.076 662.684 325.076 664.532C325.076 666.38 324.656 668.036 323.816 669.5C323 670.964 321.86 672.116 320.396 672.956C318.932 673.772 317.288 674.18 315.464 674.18ZM315.464 671.912C316.808 671.912 318.008 671.612 319.064 671.012C320.144 670.388 320.984 669.512 321.584 668.384C322.184 667.256 322.484 665.972 322.484 664.532C322.484 663.092 322.184 661.808 321.584 660.68C320.984 659.552 320.144 658.688 319.064 658.088C318.008 657.464 316.808 657.152 315.464 657.152C314.12 657.152 312.908 657.464 311.828 658.088C310.772 658.688 309.932 659.552 309.308 660.68C308.708 661.808 308.408 663.092 308.408 664.532C308.408 665.972 308.708 667.256 309.308 668.384C309.932 669.512 310.772 670.388 311.828 671.012C312.908 671.612 314.12 671.912 315.464 671.912ZM339.718 655.532C341.47 655.532 343.03 655.928 344.398 656.72C345.79 657.488 346.87 658.58 347.638 659.996C348.406 661.388 348.79 662.984 348.79 664.784C348.79 666.632 348.382 668.276 347.566 669.716C346.774 671.132 345.658 672.236 344.218 673.028C342.778 673.82 341.122 674.216 339.25 674.216C336.106 674.216 333.67 673.112 331.942 670.904C330.214 668.696 329.35 665.648 329.35 661.76C329.35 657.704 330.118 654.596 331.654 652.436C333.214 650.276 335.638 648.812 338.926 648.044L347.422 646.1L347.854 648.44L339.862 650.276C337.15 650.876 335.158 651.944 333.886 653.48C332.614 654.992 331.918 657.236 331.798 660.212C332.566 658.748 333.634 657.608 335.002 656.792C336.37 655.952 337.942 655.532 339.718 655.532ZM339.322 672.092C340.642 672.092 341.818 671.792 342.85 671.192C343.906 670.568 344.722 669.704 345.298 668.6C345.898 667.496 346.198 666.248 346.198 664.856C346.198 663.464 345.91 662.24 345.334 661.184C344.758 660.128 343.942 659.312 342.886 658.736C341.854 658.136 340.666 657.836 339.322 657.836C337.978 657.836 336.778 658.136 335.722 658.736C334.69 659.312 333.874 660.128 333.274 661.184C332.698 662.24 332.41 663.464 332.41 664.856C332.41 666.248 332.698 667.496 333.274 668.6C333.874 669.704 334.702 670.568 335.758 671.192C336.814 671.792 338.002 672.092 339.322 672.092ZM380.405 655.064V674H354.269V655.064H356.825V671.768H366.113V655.064H368.669V671.768H377.849V655.064H380.405ZM383.321 671.768V678.14H380.909V674H377.705V671.768H383.321ZM395.73 671.912C396.906 671.912 397.986 671.708 398.97 671.3C399.978 670.868 400.83 670.244 401.526 669.428L402.966 671.084C402.126 672.092 401.082 672.86 399.834 673.388C398.586 673.916 397.206 674.18 395.694 674.18C393.75 674.18 392.022 673.772 390.51 672.956C388.998 672.116 387.822 670.964 386.982 669.5C386.142 668.036 385.722 666.38 385.722 664.532C385.722 662.684 386.118 661.028 386.91 659.564C387.726 658.1 388.842 656.96 390.258 656.144C391.674 655.328 393.282 654.92 395.082 654.92C396.762 654.92 398.274 655.304 399.618 656.072C400.986 656.84 402.066 657.908 402.858 659.276C403.674 660.644 404.106 662.204 404.154 663.956L388.602 666.98C389.082 668.516 389.946 669.728 391.194 670.616C392.466 671.48 393.978 671.912 395.73 671.912ZM395.082 657.116C393.762 657.116 392.574 657.428 391.518 658.052C390.486 658.652 389.67 659.504 389.07 660.608C388.494 661.688 388.206 662.936 388.206 664.352C388.206 664.712 388.218 664.976 388.242 665.144L401.598 662.552C401.31 660.968 400.578 659.672 399.402 658.664C398.226 657.632 396.786 657.116 395.082 657.116ZM409.429 655.064H411.985V663.452H423.901V655.064H426.457V674H423.901V665.648H411.985V674H409.429V655.064ZM450.39 655.064V674H447.942V670.544C447.27 671.696 446.346 672.596 445.17 673.244C443.994 673.868 442.65 674.18 441.138 674.18C438.642 674.18 436.674 673.496 435.234 672.128C433.818 670.736 433.11 668.708 433.11 666.044V655.064H435.666V665.792C435.666 667.784 436.158 669.296 437.142 670.328C438.126 671.36 439.542 671.876 441.39 671.876C443.382 671.876 444.954 671.276 446.106 670.076C447.258 668.852 447.834 667.16 447.834 665V655.064H450.39ZM472.207 655.064V674H469.867V667.736H463.927H463.207L458.815 674H456.043L460.759 667.376C459.295 666.968 458.167 666.272 457.375 665.288C456.583 664.304 456.187 663.056 456.187 661.544C456.187 659.432 456.907 657.824 458.347 656.72C459.787 655.616 461.755 655.064 464.251 655.064H472.207ZM458.779 661.616C458.779 664.424 460.567 665.828 464.143 665.828H469.867V657.332H464.323C460.627 657.332 458.779 658.76 458.779 661.616ZM489.097 674.18C488.569 674.18 488.113 673.988 487.729 673.604C487.369 673.22 487.189 672.752 487.189 672.2C487.189 671.648 487.369 671.192 487.729 670.832C488.113 670.448 488.569 670.256 489.097 670.256C489.625 670.256 490.081 670.448 490.465 670.832C490.849 671.192 491.041 671.648 491.041 672.2C491.041 672.752 490.849 673.22 490.465 673.604C490.081 673.988 489.625 674.18 489.097 674.18ZM496.726 674.18C496.198 674.18 495.742 673.988 495.358 673.604C494.998 673.22 494.818 672.752 494.818 672.2C494.818 671.648 494.998 671.192 495.358 670.832C495.742 670.448 496.198 670.256 496.726 670.256C497.254 670.256 497.71 670.448 498.094 670.832C498.478 671.192 498.67 671.648 498.67 672.2C498.67 672.752 498.478 673.22 498.094 673.604C497.71 673.988 497.254 674.18 496.726 674.18ZM504.355 674.18C503.827 674.18 503.371 673.988 502.987 673.604C502.627 673.22 502.447 672.752 502.447 672.2C502.447 671.648 502.627 671.192 502.987 670.832C503.371 670.448 503.827 670.256 504.355 670.256C504.883 670.256 505.339 670.448 505.723 670.832C506.107 671.192 506.299 671.648 506.299 672.2C506.299 672.752 506.107 673.22 505.723 673.604C505.339 673.988 504.883 674.18 504.355 674.18Z" fill="white"/>
<defs>
<filter id="filter0_d_235_312" x="0" y="0" width="619" height="747" filterUnits="userSpaceOnUse" color-interpolation-filters="sRGB">
<feFlood flood-opacity="0" result="BackgroundImageFix"/>
<feColorMatrix in="SourceAlpha" type="matrix" values="0 0 0 0 0 0 0 0 0 0 0 0 0 0 0 0 0 0 127 0" result="hardAlpha"/>
<feOffset dy="4"/>
<feGaussianBlur stdDeviation="2"/>
<feComposite in2="hardAlpha" operator="out"/>
<feColorMatrix type="matrix" values="0 0 0 0 0 0 0 0 0 0 0 0 0 0 0 0 0 0 0.25 0"/>
<feBlend mode="normal" in2="BackgroundImageFix" result="effect1_dropShadow_235_312"/>
<feBlend mode="normal" in="SourceGraphic" in2="effect1_dropShadow_235_312" result="shape"/>
</filter>
<filter id="filter1_d_235_312" x="165" y="146" width="289" height="263" filterUnits="userSpaceOnUse" color-interpolation-filters="sRGB">
<feFlood flood-opacity="0" result="BackgroundImageFix"/>
<feColorMatrix in="SourceAlpha" type="matrix" values="0 0 0 0 0 0 0 0 0 0 0 0 0 0 0 0 0 0 127 0" result="hardAlpha"/>
<feOffset dy="4"/>
<feGaussianBlur stdDeviation="2"/>
<feComposite in2="hardAlpha" operator="out"/>
<feColorMatrix type="matrix" values="0 0 0 0 0 0 0 0 0 0 0 0 0 0 0 0 0 0 0.25 0"/>
<feBlend mode="normal" in2="BackgroundImageFix" result="effect1_dropShadow_235_312"/>
<feBlend mode="normal" in="SourceGraphic" in2="effect1_dropShadow_235_312" result="shape"/>
</filter>
</defs>
</svg>
