<svg width="619" height="747" viewBox="0 0 619 747" fill="none" xmlns="http://www.w3.org/2000/svg">
<g filter="url(#filter0_d_235_368)">
<rect x="4" width="611" height="739" rx="103" fill="#1E4BD6"/>
</g>
<path d="M306 347.52C301.8 347.52 297.6 346.7 294.1 345.061C267.92 333.119 221.86 320.474 193.02 317.312L188.96 316.844C170.62 314.971 155.5 300.57 155.5 284.997V143.561C155.5 134.311 159.84 125.881 167.82 119.793C175.8 113.705 186.16 110.777 197.08 111.597C227.88 113.587 274.36 126.467 300.68 140.282L304.04 141.922C305.02 142.39 307.12 142.39 307.96 142.039L310.2 140.868C336.52 127.052 383 113.939 413.94 111.714C414.22 111.714 415.34 111.714 415.62 111.714C425.84 110.895 436.34 113.939 444.18 120.027C452.16 126.115 456.5 134.545 456.5 143.795V285.115C456.5 300.804 441.38 315.088 422.9 316.961L418.28 317.43C389.44 320.591 343.24 333.353 317.62 345.178C314.26 346.817 310.2 347.52 306 347.52ZM193.72 129.042C189.24 129.042 185.18 130.33 181.96 132.789C178.46 135.482 176.5 139.346 176.5 143.561V284.997C176.5 291.905 183.64 298.579 191.62 299.516L195.82 299.984C227.32 303.497 275.62 316.727 303.62 329.489C304.88 329.957 306.7 330.075 307.4 329.84C335.4 316.844 383.98 303.497 415.62 299.984L420.38 299.516C428.36 298.696 435.5 291.905 435.5 284.997V143.678C435.5 139.346 433.54 135.599 430.04 132.789C426.4 130.096 421.78 128.808 416.6 129.042C416.32 129.042 415.2 129.042 414.92 129.042C388.18 131.033 345.06 143.092 321.54 155.386L319.3 156.674C311.6 160.655 300.68 160.655 293.26 156.791L289.9 155.152C265.96 142.858 222.84 130.916 195.4 129.042C194.84 129.042 194.28 129.042 193.72 129.042Z" fill="white"/>
<path d="M306 337.685C300.26 337.685 295.5 333.704 295.5 328.904V153.279C295.5 148.478 300.26 144.498 306 144.498C311.74 144.498 316.5 148.478 316.5 153.279V328.904C316.5 333.821 311.74 337.685 306 337.685Z" fill="white"/>
<path d="M246.5 197.185H215C209.26 197.185 204.5 193.204 204.5 188.404C204.5 183.603 209.26 179.623 215 179.623H246.5C252.24 179.623 257 183.603 257 188.404C257 193.204 252.24 197.185 246.5 197.185Z" fill="white"/>
<path d="M257 232.31H215C209.26 232.31 204.5 228.329 204.5 223.529C204.5 218.728 209.26 214.748 215 214.748H257C262.74 214.748 267.5 218.728 267.5 223.529C267.5 228.329 262.74 232.31 257 232.31Z" fill="white"/>
<path d="M92.7808 471.18C92.2528 471.18 91.7968 470.988 91.4128 470.604C91.0528 470.22 90.8728 469.752 90.8728 469.2C90.8728 468.648 91.0528 468.192 91.4128 467.832C91.7968 467.448 92.2528 467.256 92.7808 467.256C93.3088 467.256 93.7648 467.448 94.1488 467.832C94.5328 468.192 94.7248 468.648 94.7248 469.2C94.7248 469.752 94.5328 470.22 94.1488 470.604C93.7648 470.988 93.3088 471.18 92.7808 471.18ZM100.41 471.18C99.8818 471.18 99.4258 470.988 99.0418 470.604C98.6818 470.22 98.5018 469.752 98.5018 469.2C98.5018 468.648 98.6818 468.192 99.0418 467.832C99.4258 467.448 99.8818 467.256 100.41 467.256C100.938 467.256 101.394 467.448 101.778 467.832C102.162 468.192 102.354 468.648 102.354 469.2C102.354 469.752 102.162 470.22 101.778 470.604C101.394 470.988 100.938 471.18 100.41 471.18ZM108.039 471.18C107.511 471.18 107.055 470.988 106.671 470.604C106.311 470.22 106.131 469.752 106.131 469.2C106.131 468.648 106.311 468.192 106.671 467.832C107.055 467.448 107.511 467.256 108.039 467.256C108.567 467.256 109.023 467.448 109.407 467.832C109.791 468.192 109.983 468.648 109.983 469.2C109.983 469.752 109.791 470.22 109.407 470.604C109.023 470.988 108.567 471.18 108.039 471.18ZM142.117 452.064V471H139.669V467.256C138.901 468.528 137.881 469.5 136.609 470.172C135.361 470.844 133.945 471.18 132.361 471.18C130.585 471.18 128.977 470.772 127.537 469.956C126.097 469.14 124.969 468 124.153 466.536C123.337 465.072 122.929 463.404 122.929 461.532C122.929 459.66 123.337 457.992 124.153 456.528C124.969 455.064 126.097 453.936 127.537 453.144C128.977 452.328 130.585 451.92 132.361 451.92C133.897 451.92 135.277 452.244 136.501 452.892C137.749 453.516 138.769 454.44 139.561 455.664V452.064H142.117ZM132.577 468.912C133.897 468.912 135.085 468.612 136.141 468.012C137.221 467.388 138.061 466.512 138.661 465.384C139.285 464.256 139.597 462.972 139.597 461.532C139.597 460.092 139.285 458.808 138.661 457.68C138.061 456.552 137.221 455.688 136.141 455.088C135.085 454.464 133.897 454.152 132.577 454.152C131.233 454.152 130.021 454.464 128.941 455.088C127.885 455.688 127.045 456.552 126.421 457.68C125.821 458.808 125.521 460.092 125.521 461.532C125.521 462.972 125.821 464.256 126.421 465.384C127.045 466.512 127.885 467.388 128.941 468.012C130.021 468.612 131.233 468.912 132.577 468.912ZM166.758 468.912C167.934 468.912 169.014 468.708 169.998 468.3C171.006 467.868 171.858 467.244 172.554 466.428L173.994 468.084C173.154 469.092 172.11 469.86 170.862 470.388C169.614 470.916 168.234 471.18 166.722 471.18C164.778 471.18 163.05 470.772 161.538 469.956C160.026 469.116 158.85 467.964 158.01 466.5C157.17 465.036 156.75 463.38 156.75 461.532C156.75 459.684 157.146 458.028 157.938 456.564C158.754 455.1 159.87 453.96 161.286 453.144C162.702 452.328 164.31 451.92 166.11 451.92C167.79 451.92 169.302 452.304 170.646 453.072C172.014 453.84 173.094 454.908 173.886 456.276C174.702 457.644 175.134 459.204 175.182 460.956L159.63 463.98C160.11 465.516 160.974 466.728 162.222 467.616C163.494 468.48 165.006 468.912 166.758 468.912ZM166.11 454.116C164.79 454.116 163.602 454.428 162.546 455.052C161.514 455.652 160.698 456.504 160.098 457.608C159.522 458.688 159.234 459.936 159.234 461.352C159.234 461.712 159.246 461.976 159.27 462.144L172.626 459.552C172.338 457.968 171.606 456.672 170.43 455.664C169.254 454.632 167.814 454.116 166.11 454.116ZM206.592 452.064V471H180.456V452.064H183.012V468.768H192.3V452.064H194.856V468.768H204.036V452.064H206.592ZM209.508 468.768V475.14H207.096V471H203.892V468.768H209.508ZM221.918 468.912C223.094 468.912 224.174 468.708 225.158 468.3C226.166 467.868 227.018 467.244 227.714 466.428L229.154 468.084C228.314 469.092 227.27 469.86 226.022 470.388C224.774 470.916 223.394 471.18 221.882 471.18C219.938 471.18 218.21 470.772 216.698 469.956C215.186 469.116 214.01 467.964 213.17 466.5C212.33 465.036 211.91 463.38 211.91 461.532C211.91 459.684 212.306 458.028 213.098 456.564C213.914 455.1 215.03 453.96 216.446 453.144C217.862 452.328 219.47 451.92 221.27 451.92C222.95 451.92 224.462 452.304 225.806 453.072C227.174 453.84 228.254 454.908 229.046 456.276C229.862 457.644 230.294 459.204 230.342 460.956L214.79 463.98C215.27 465.516 216.134 466.728 217.382 467.616C218.654 468.48 220.166 468.912 221.918 468.912ZM221.27 454.116C219.95 454.116 218.762 454.428 217.706 455.052C216.674 455.652 215.858 456.504 215.258 457.608C214.682 458.688 214.394 459.936 214.394 461.352C214.394 461.712 214.406 461.976 214.43 462.144L227.786 459.552C227.498 457.968 226.766 456.672 225.59 455.664C224.414 454.632 222.974 454.116 221.27 454.116ZM262.03 452.064V471H259.474V454.332H247.594V471H245.038V452.064H262.03ZM277.108 471.18C275.284 471.18 273.64 470.772 272.176 469.956C270.712 469.116 269.56 467.964 268.72 466.5C267.88 465.036 267.46 463.38 267.46 461.532C267.46 459.684 267.88 458.028 268.72 456.564C269.56 455.1 270.712 453.96 272.176 453.144C273.64 452.328 275.284 451.92 277.108 451.92C278.932 451.92 280.576 452.328 282.04 453.144C283.504 453.96 284.644 455.1 285.46 456.564C286.3 458.028 286.72 459.684 286.72 461.532C286.72 463.38 286.3 465.036 285.46 466.5C284.644 467.964 283.504 469.116 282.04 469.956C280.576 470.772 278.932 471.18 277.108 471.18ZM277.108 468.912C278.452 468.912 279.652 468.612 280.708 468.012C281.788 467.388 282.628 466.512 283.228 465.384C283.828 464.256 284.128 462.972 284.128 461.532C284.128 460.092 283.828 458.808 283.228 457.68C282.628 456.552 281.788 455.688 280.708 455.088C279.652 454.464 278.452 454.152 277.108 454.152C275.764 454.152 274.552 454.464 273.472 455.088C272.416 455.688 271.576 456.552 270.952 457.68C270.352 458.808 270.052 460.092 270.052 461.532C270.052 462.972 270.352 464.256 270.952 465.384C271.576 466.512 272.416 467.388 273.472 468.012C274.552 468.612 275.764 468.912 277.108 468.912ZM309.679 452.064V468.696C309.679 471.912 308.887 474.288 307.303 475.824C305.743 477.384 303.379 478.164 300.211 478.164C298.459 478.164 296.791 477.9 295.207 477.372C293.647 476.868 292.375 476.16 291.391 475.248L292.687 473.304C293.599 474.12 294.703 474.756 295.999 475.212C297.319 475.668 298.699 475.896 300.139 475.896C302.539 475.896 304.303 475.332 305.431 474.204C306.559 473.1 307.123 471.372 307.123 469.02V466.608C306.331 467.808 305.287 468.72 303.991 469.344C302.719 469.968 301.303 470.28 299.743 470.28C297.967 470.28 296.347 469.896 294.883 469.128C293.443 468.336 292.303 467.244 291.463 465.852C290.647 464.436 290.239 462.84 290.239 461.064C290.239 459.288 290.647 457.704 291.463 456.312C292.303 454.92 293.443 453.84 294.883 453.072C296.323 452.304 297.943 451.92 299.743 451.92C301.351 451.92 302.803 452.244 304.099 452.892C305.395 453.54 306.439 454.476 307.231 455.7V452.064H309.679ZM299.995 468.012C301.363 468.012 302.599 467.724 303.703 467.148C304.807 466.548 305.659 465.72 306.259 464.664C306.883 463.608 307.195 462.408 307.195 461.064C307.195 459.72 306.883 458.532 306.259 457.5C305.659 456.444 304.807 455.628 303.703 455.052C302.623 454.452 301.387 454.152 299.995 454.152C298.627 454.152 297.391 454.44 296.287 455.016C295.207 455.592 294.355 456.408 293.731 457.464C293.131 458.52 292.831 459.72 292.831 461.064C292.831 462.408 293.131 463.608 293.731 464.664C294.355 465.72 295.207 466.548 296.287 467.148C297.391 467.724 298.627 468.012 299.995 468.012ZM326.148 452.532C327.9 452.532 329.46 452.928 330.828 453.72C332.22 454.488 333.3 455.58 334.068 456.996C334.836 458.388 335.22 459.984 335.22 461.784C335.22 463.632 334.812 465.276 333.996 466.716C333.204 468.132 332.088 469.236 330.648 470.028C329.208 470.82 327.552 471.216 325.68 471.216C322.536 471.216 320.1 470.112 318.372 467.904C316.644 465.696 315.78 462.648 315.78 458.76C315.78 454.704 316.548 451.596 318.084 449.436C319.644 447.276 322.068 445.812 325.356 445.044L333.852 443.1L334.284 445.44L326.292 447.276C323.58 447.876 321.588 448.944 320.316 450.48C319.044 451.992 318.348 454.236 318.228 457.212C318.996 455.748 320.064 454.608 321.432 453.792C322.8 452.952 324.372 452.532 326.148 452.532ZM325.752 469.092C327.072 469.092 328.248 468.792 329.28 468.192C330.336 467.568 331.152 466.704 331.728 465.6C332.328 464.496 332.628 463.248 332.628 461.856C332.628 460.464 332.34 459.24 331.764 458.184C331.188 457.128 330.372 456.312 329.316 455.736C328.284 455.136 327.096 454.836 325.752 454.836C324.408 454.836 323.208 455.136 322.152 455.736C321.12 456.312 320.304 457.128 319.704 458.184C319.128 459.24 318.84 460.464 318.84 461.856C318.84 463.248 319.128 464.496 319.704 465.6C320.304 466.704 321.132 467.568 322.188 468.192C323.244 468.792 324.432 469.092 325.752 469.092ZM348.727 468.912C349.903 468.912 350.983 468.708 351.967 468.3C352.975 467.868 353.827 467.244 354.523 466.428L355.963 468.084C355.123 469.092 354.079 469.86 352.831 470.388C351.583 470.916 350.203 471.18 348.691 471.18C346.747 471.18 345.019 470.772 343.507 469.956C341.995 469.116 340.819 467.964 339.979 466.5C339.139 465.036 338.719 463.38 338.719 461.532C338.719 459.684 339.115 458.028 339.907 456.564C340.723 455.1 341.839 453.96 343.255 453.144C344.671 452.328 346.279 451.92 348.079 451.92C349.759 451.92 351.271 452.304 352.615 453.072C353.983 453.84 355.063 454.908 355.855 456.276C356.671 457.644 357.103 459.204 357.151 460.956L341.599 463.98C342.079 465.516 342.943 466.728 344.191 467.616C345.463 468.48 346.975 468.912 348.727 468.912ZM348.079 454.116C346.759 454.116 345.571 454.428 344.515 455.052C343.483 455.652 342.667 456.504 342.067 457.608C341.491 458.688 341.203 459.936 341.203 461.352C341.203 461.712 341.215 461.976 341.239 462.144L354.595 459.552C354.307 457.968 353.575 456.672 352.399 455.664C351.223 454.632 349.783 454.116 348.079 454.116ZM371.137 451.92C372.985 451.92 374.629 452.328 376.069 453.144C377.509 453.96 378.625 455.1 379.417 456.564C380.233 458.028 380.641 459.696 380.641 461.568C380.641 463.44 380.245 465.108 379.453 466.572C378.661 468.012 377.557 469.14 376.141 469.956C374.749 470.772 373.153 471.18 371.353 471.18C369.769 471.18 368.353 470.868 367.105 470.244C365.881 469.596 364.885 468.672 364.117 467.472V477.984H361.561V461.604C361.561 459.708 361.957 458.028 362.749 456.564C363.565 455.1 364.693 453.96 366.133 453.144C367.597 452.328 369.265 451.92 371.137 451.92ZM371.065 468.948C372.409 468.948 373.621 468.636 374.701 468.012C375.781 467.388 376.621 466.512 377.221 465.384C377.821 464.256 378.121 462.984 378.121 461.568C378.121 460.152 377.821 458.88 377.221 457.752C376.621 456.624 375.781 455.748 374.701 455.124C373.621 454.476 372.409 454.152 371.065 454.152C369.721 454.152 368.509 454.464 367.429 455.088C366.373 455.712 365.545 456.588 364.945 457.716C364.369 458.82 364.081 460.092 364.081 461.532C364.081 462.972 364.369 464.256 364.945 465.384C365.545 466.512 366.373 467.388 367.429 468.012C368.509 468.636 369.721 468.948 371.065 468.948ZM403.148 452.064V468.696C403.148 471.912 402.416 474.288 400.952 475.824C399.488 477.384 397.28 478.164 394.328 478.164C392.672 478.164 391.1 477.9 389.612 477.372C388.148 476.868 386.96 476.16 386.048 475.248L387.344 473.304C388.16 474.12 389.168 474.756 390.368 475.212C391.568 475.668 392.852 475.896 394.22 475.896C396.404 475.896 398.012 475.332 399.044 474.204C400.076 473.1 400.592 471.372 400.592 469.02V466.824C399.92 467.928 398.996 468.78 397.82 469.38C396.668 469.98 395.36 470.28 393.896 470.28C391.424 470.28 389.468 469.596 388.028 468.228C386.612 466.836 385.904 464.808 385.904 462.144V452.064H388.46V461.892C388.46 463.884 388.952 465.396 389.936 466.428C390.92 467.46 392.324 467.976 394.148 467.976C396.14 467.976 397.712 467.376 398.864 466.176C400.016 464.952 400.592 463.26 400.592 461.1V452.064H403.148ZM443.416 451.92C445.792 451.92 447.652 452.604 448.996 453.972C450.364 455.34 451.048 457.356 451.048 460.02V471H448.492V460.272C448.492 458.304 448.012 456.804 447.052 455.772C446.116 454.74 444.784 454.224 443.056 454.224C441.088 454.224 439.54 454.836 438.412 456.06C437.284 457.26 436.72 458.928 436.72 461.064V471H434.164V460.272C434.164 458.304 433.684 456.804 432.724 455.772C431.788 454.74 430.444 454.224 428.692 454.224C426.748 454.224 425.2 454.836 424.048 456.06C422.92 457.26 422.356 458.928 422.356 461.064V471H419.8V452.064H422.248V455.52C422.92 454.368 423.856 453.48 425.056 452.856C426.256 452.232 427.636 451.92 429.196 451.92C430.78 451.92 432.148 452.256 433.3 452.928C434.476 453.6 435.352 454.596 435.928 455.916C436.624 454.668 437.62 453.696 438.916 453C440.236 452.28 441.736 451.92 443.416 451.92ZM469.794 461.208C472.362 461.808 473.646 463.356 473.646 465.852C473.646 467.508 473.034 468.78 471.81 469.668C470.586 470.556 468.762 471 466.338 471H457.734V452.064H466.086C468.246 452.064 469.938 452.484 471.162 453.324C472.386 454.164 472.998 455.364 472.998 456.924C472.998 457.956 472.71 458.844 472.134 459.588C471.582 460.308 470.802 460.848 469.794 461.208ZM460.218 460.488H465.906C467.37 460.488 468.486 460.212 469.254 459.66C470.046 459.108 470.442 458.304 470.442 457.248C470.442 456.192 470.046 455.4 469.254 454.872C468.486 454.344 467.37 454.08 465.906 454.08H460.218V460.488ZM466.23 468.984C467.862 468.984 469.086 468.72 469.902 468.192C470.718 467.664 471.126 466.836 471.126 465.708C471.126 464.58 470.754 463.752 470.01 463.224C469.266 462.672 468.09 462.396 466.482 462.396H460.218V468.984H466.23ZM487.448 471.18C485.624 471.18 483.98 470.772 482.516 469.956C481.052 469.116 479.9 467.964 479.06 466.5C478.22 465.036 477.8 463.38 477.8 461.532C477.8 459.684 478.22 458.028 479.06 456.564C479.9 455.1 481.052 453.96 482.516 453.144C483.98 452.328 485.624 451.92 487.448 451.92C489.272 451.92 490.916 452.328 492.38 453.144C493.844 453.96 494.984 455.1 495.8 456.564C496.64 458.028 497.06 459.684 497.06 461.532C497.06 463.38 496.64 465.036 495.8 466.5C494.984 467.964 493.844 469.116 492.38 469.956C490.916 470.772 489.272 471.18 487.448 471.18ZM487.448 468.912C488.792 468.912 489.992 468.612 491.048 468.012C492.128 467.388 492.968 466.512 493.568 465.384C494.168 464.256 494.468 462.972 494.468 461.532C494.468 460.092 494.168 458.808 493.568 457.68C492.968 456.552 492.128 455.688 491.048 455.088C489.992 454.464 488.792 454.152 487.448 454.152C486.104 454.152 484.892 454.464 483.812 455.088C482.756 455.688 481.916 456.552 481.292 457.68C480.692 458.808 480.392 460.092 480.392 461.532C480.392 462.972 480.692 464.256 481.292 465.384C481.916 466.512 482.756 467.388 483.812 468.012C484.892 468.612 486.104 468.912 487.448 468.912ZM518.795 451.92C520.571 451.92 522.167 452.328 523.583 453.144C525.023 453.96 526.151 455.1 526.967 456.564C527.783 458.028 528.191 459.684 528.191 461.532C528.191 463.38 527.783 465.036 526.967 466.5C526.151 467.964 525.023 469.116 523.583 469.956C522.167 470.772 520.571 471.18 518.795 471.18C517.115 471.18 515.591 470.82 514.223 470.1C512.855 469.356 511.739 468.336 510.875 467.04C510.035 465.744 509.543 464.256 509.399 462.576H505.079V471H502.523V452.064H505.079V460.236H509.435C509.627 458.604 510.143 457.164 510.983 455.916C511.847 454.644 512.951 453.66 514.295 452.964C515.639 452.268 517.139 451.92 518.795 451.92ZM518.795 468.948C520.091 468.948 521.255 468.636 522.287 468.012C523.343 467.388 524.171 466.512 524.771 465.384C525.371 464.256 525.671 462.972 525.671 461.532C525.671 460.092 525.371 458.808 524.771 457.68C524.171 456.552 523.343 455.688 522.287 455.088C521.255 454.464 520.091 454.152 518.795 454.152C517.499 454.152 516.323 454.464 515.267 455.088C514.235 455.688 513.419 456.552 512.819 457.68C512.219 458.808 511.919 460.092 511.919 461.532C511.919 462.972 512.219 464.256 512.819 465.384C513.419 466.512 514.235 467.388 515.267 468.012C516.323 468.636 517.499 468.948 518.795 468.948ZM160.14 496.064V515H157.692V511.544C157.02 512.696 156.096 513.596 154.92 514.244C153.744 514.868 152.4 515.18 150.888 515.18C148.392 515.18 146.424 514.496 144.984 513.128C143.568 511.736 142.86 509.708 142.86 507.044V496.064H145.416V506.792C145.416 508.784 145.908 510.296 146.892 511.328C147.876 512.36 149.292 512.876 151.14 512.876C153.132 512.876 154.704 512.276 155.856 511.076C157.008 509.852 157.584 508.16 157.584 506V496.064H160.14ZM167.413 496.064H169.969V504.452H181.885V496.064H184.441V515H181.885V506.648H169.969V515H167.413V496.064ZM209.202 496.064V512.696C209.202 515.912 208.41 518.288 206.826 519.824C205.266 521.384 202.902 522.164 199.734 522.164C197.982 522.164 196.314 521.9 194.73 521.372C193.17 520.868 191.898 520.16 190.914 519.248L192.21 517.304C193.122 518.12 194.226 518.756 195.522 519.212C196.842 519.668 198.222 519.896 199.662 519.896C202.062 519.896 203.826 519.332 204.954 518.204C206.082 517.1 206.646 515.372 206.646 513.02V510.608C205.854 511.808 204.81 512.72 203.514 513.344C202.242 513.968 200.826 514.28 199.266 514.28C197.49 514.28 195.87 513.896 194.406 513.128C192.966 512.336 191.826 511.244 190.986 509.852C190.17 508.436 189.762 506.84 189.762 505.064C189.762 503.288 190.17 501.704 190.986 500.312C191.826 498.92 192.966 497.84 194.406 497.072C195.846 496.304 197.466 495.92 199.266 495.92C200.874 495.92 202.326 496.244 203.622 496.892C204.918 497.54 205.962 498.476 206.754 499.7V496.064H209.202ZM199.518 512.012C200.886 512.012 202.122 511.724 203.226 511.148C204.33 510.548 205.182 509.72 205.782 508.664C206.406 507.608 206.718 506.408 206.718 505.064C206.718 503.72 206.406 502.532 205.782 501.5C205.182 500.444 204.33 499.628 203.226 499.052C202.146 498.452 200.91 498.152 199.518 498.152C198.15 498.152 196.914 498.44 195.81 499.016C194.73 499.592 193.878 500.408 193.254 501.464C192.654 502.52 192.354 503.72 192.354 505.064C192.354 506.408 192.654 507.608 193.254 508.664C193.878 509.72 194.73 510.548 195.81 511.148C196.914 511.724 198.15 512.012 199.518 512.012ZM233.159 496.064V515H230.711V511.544C230.039 512.696 229.115 513.596 227.939 514.244C226.763 514.868 225.419 515.18 223.907 515.18C221.411 515.18 219.443 514.496 218.003 513.128C216.587 511.736 215.879 509.708 215.879 507.044V496.064H218.435V506.792C218.435 508.784 218.927 510.296 219.911 511.328C220.895 512.36 222.311 512.876 224.159 512.876C226.151 512.876 227.723 512.276 228.875 511.076C230.027 509.852 230.603 508.16 230.603 506V496.064H233.159ZM252.493 505.208C255.061 505.808 256.345 507.356 256.345 509.852C256.345 511.508 255.733 512.78 254.509 513.668C253.285 514.556 251.461 515 249.037 515H240.433V496.064H248.785C250.945 496.064 252.637 496.484 253.861 497.324C255.085 498.164 255.697 499.364 255.697 500.924C255.697 501.956 255.409 502.844 254.833 503.588C254.281 504.308 253.501 504.848 252.493 505.208ZM242.917 504.488H248.605C250.069 504.488 251.185 504.212 251.953 503.66C252.745 503.108 253.141 502.304 253.141 501.248C253.141 500.192 252.745 499.4 251.953 498.872C251.185 498.344 250.069 498.08 248.605 498.08H242.917V504.488ZM248.929 512.984C250.561 512.984 251.785 512.72 252.601 512.192C253.417 511.664 253.825 510.836 253.825 509.708C253.825 508.58 253.453 507.752 252.709 507.224C251.965 506.672 250.789 506.396 249.181 506.396H242.917V512.984H248.929ZM279.003 496.064V515H276.555V511.544C275.883 512.696 274.959 513.596 273.783 514.244C272.607 514.868 271.263 515.18 269.751 515.18C267.255 515.18 265.287 514.496 263.847 513.128C262.431 511.736 261.723 509.708 261.723 507.044V496.064H264.279V506.792C264.279 508.784 264.771 510.296 265.755 511.328C266.739 512.36 268.155 512.876 270.003 512.876C271.995 512.876 273.567 512.276 274.719 511.076C275.871 509.852 276.447 508.16 276.447 506V496.064H279.003ZM303.773 496.064V512.696C303.773 515.912 302.981 518.288 301.397 519.824C299.837 521.384 297.473 522.164 294.305 522.164C292.553 522.164 290.885 521.9 289.301 521.372C287.741 520.868 286.469 520.16 285.485 519.248L286.781 517.304C287.693 518.12 288.797 518.756 290.093 519.212C291.413 519.668 292.793 519.896 294.233 519.896C296.633 519.896 298.397 519.332 299.525 518.204C300.653 517.1 301.217 515.372 301.217 513.02V510.608C300.425 511.808 299.381 512.72 298.085 513.344C296.813 513.968 295.397 514.28 293.837 514.28C292.061 514.28 290.441 513.896 288.977 513.128C287.537 512.336 286.397 511.244 285.557 509.852C284.741 508.436 284.333 506.84 284.333 505.064C284.333 503.288 284.741 501.704 285.557 500.312C286.397 498.92 287.537 497.84 288.977 497.072C290.417 496.304 292.037 495.92 293.837 495.92C295.445 495.92 296.897 496.244 298.193 496.892C299.489 497.54 300.533 498.476 301.325 499.7V496.064H303.773ZM294.089 512.012C295.457 512.012 296.693 511.724 297.797 511.148C298.901 510.548 299.753 509.72 300.353 508.664C300.977 507.608 301.289 506.408 301.289 505.064C301.289 503.72 300.977 502.532 300.353 501.5C299.753 500.444 298.901 499.628 297.797 499.052C296.717 498.452 295.481 498.152 294.089 498.152C292.721 498.152 291.485 498.44 290.381 499.016C289.301 499.592 288.449 500.408 287.825 501.464C287.225 502.52 286.925 503.72 286.925 505.064C286.925 506.408 287.225 507.608 287.825 508.664C288.449 509.72 289.301 510.548 290.381 511.148C291.485 511.724 292.721 512.012 294.089 512.012ZM328.054 496.064V512.696C328.054 515.912 327.322 518.288 325.858 519.824C324.394 521.384 322.186 522.164 319.234 522.164C317.578 522.164 316.006 521.9 314.518 521.372C313.054 520.868 311.866 520.16 310.954 519.248L312.25 517.304C313.066 518.12 314.074 518.756 315.274 519.212C316.474 519.668 317.758 519.896 319.126 519.896C321.31 519.896 322.918 519.332 323.95 518.204C324.982 517.1 325.498 515.372 325.498 513.02V510.824C324.826 511.928 323.902 512.78 322.726 513.38C321.574 513.98 320.266 514.28 318.802 514.28C316.33 514.28 314.374 513.596 312.934 512.228C311.518 510.836 310.81 508.808 310.81 506.144V496.064H313.366V505.892C313.366 507.884 313.858 509.396 314.842 510.428C315.826 511.46 317.23 511.976 319.054 511.976C321.046 511.976 322.618 511.376 323.77 510.176C324.922 508.952 325.498 507.26 325.498 505.1V496.064H328.054ZM352.492 496.064V515H350.044V511.256C349.276 512.528 348.256 513.5 346.984 514.172C345.736 514.844 344.32 515.18 342.736 515.18C340.96 515.18 339.352 514.772 337.912 513.956C336.472 513.14 335.344 512 334.528 510.536C333.712 509.072 333.304 507.404 333.304 505.532C333.304 503.66 333.712 501.992 334.528 500.528C335.344 499.064 336.472 497.936 337.912 497.144C339.352 496.328 340.96 495.92 342.736 495.92C344.272 495.92 345.652 496.244 346.876 496.892C348.124 497.516 349.144 498.44 349.936 499.664V496.064H352.492ZM342.952 512.912C344.272 512.912 345.46 512.612 346.516 512.012C347.596 511.388 348.436 510.512 349.036 509.384C349.66 508.256 349.972 506.972 349.972 505.532C349.972 504.092 349.66 502.808 349.036 501.68C348.436 500.552 347.596 499.688 346.516 499.088C345.46 498.464 344.272 498.152 342.952 498.152C341.608 498.152 340.396 498.464 339.316 499.088C338.26 499.688 337.42 500.552 336.796 501.68C336.196 502.808 335.896 504.092 335.896 505.532C335.896 506.972 336.196 508.256 336.796 509.384C337.42 510.512 338.26 511.388 339.316 512.012C340.396 512.612 341.608 512.912 342.952 512.912ZM375.163 496.064V515H372.607V498.332H363.535L363.283 503.012C363.091 506.948 362.635 509.972 361.915 512.084C361.195 514.196 359.911 515.252 358.063 515.252C357.559 515.252 356.947 515.156 356.227 514.964L356.407 512.768C356.839 512.864 357.139 512.912 357.307 512.912C358.291 512.912 359.035 512.456 359.539 511.544C360.043 510.632 360.379 509.504 360.547 508.16C360.715 506.816 360.859 505.04 360.979 502.832L361.303 496.064H375.163ZM390.061 515.396C387.469 515.396 385.465 514.748 384.049 513.452C382.633 512.156 381.925 510.344 381.925 508.016V496.064H384.481V503.948C385.105 503.204 385.957 502.616 387.037 502.184C388.141 501.752 389.365 501.536 390.709 501.536C393.061 501.536 394.885 502.136 396.181 503.336C397.501 504.536 398.161 506.144 398.161 508.16C398.161 510.344 397.441 512.096 396.001 513.416C394.561 514.736 392.581 515.396 390.061 515.396ZM390.097 513.416C391.801 513.416 393.133 512.936 394.093 511.976C395.077 511.016 395.569 509.768 395.569 508.232C395.569 506.792 395.089 505.64 394.129 504.776C393.169 503.912 391.813 503.48 390.061 503.48C388.765 503.48 387.625 503.744 386.641 504.272C385.681 504.8 384.961 505.532 384.481 506.468V508.196C384.481 509.828 384.973 511.112 385.957 512.048C386.965 512.96 388.345 513.416 390.097 513.416ZM403.136 496.064H405.692V504.452H417.608V496.064H420.164V515H417.608V506.648H405.692V515H403.136V496.064ZM444.421 496.064V512.696C444.421 515.912 443.689 518.288 442.225 519.824C440.761 521.384 438.553 522.164 435.601 522.164C433.945 522.164 432.373 521.9 430.885 521.372C429.421 520.868 428.233 520.16 427.321 519.248L428.617 517.304C429.433 518.12 430.441 518.756 431.641 519.212C432.841 519.668 434.125 519.896 435.493 519.896C437.677 519.896 439.285 519.332 440.317 518.204C441.349 517.1 441.865 515.372 441.865 513.02V510.824C441.193 511.928 440.269 512.78 439.093 513.38C437.941 513.98 436.633 514.28 435.169 514.28C432.697 514.28 430.741 513.596 429.301 512.228C427.885 510.836 427.177 508.808 427.177 506.144V496.064H429.733V505.892C429.733 507.884 430.225 509.396 431.209 510.428C432.193 511.46 433.597 511.976 435.421 511.976C437.413 511.976 438.985 511.376 440.137 510.176C441.289 508.952 441.865 507.26 441.865 505.1V496.064H444.421ZM467.924 495.92C469.7 495.92 471.296 496.328 472.712 497.144C474.152 497.96 475.28 499.1 476.096 500.564C476.912 502.028 477.32 503.684 477.32 505.532C477.32 507.38 476.912 509.036 476.096 510.5C475.28 511.964 474.152 513.116 472.712 513.956C471.296 514.772 469.7 515.18 467.924 515.18C466.244 515.18 464.72 514.82 463.352 514.1C461.984 513.356 460.868 512.336 460.004 511.04C459.164 509.744 458.672 508.256 458.528 506.576H454.208V515H451.652V496.064H454.208V504.236H458.564C458.756 502.604 459.272 501.164 460.112 499.916C460.976 498.644 462.08 497.66 463.424 496.964C464.768 496.268 466.268 495.92 467.924 495.92ZM467.924 512.948C469.22 512.948 470.384 512.636 471.416 512.012C472.472 511.388 473.3 510.512 473.9 509.384C474.5 508.256 474.8 506.972 474.8 505.532C474.8 504.092 474.5 502.808 473.9 501.68C473.3 500.552 472.472 499.688 471.416 499.088C470.384 498.464 469.22 498.152 467.924 498.152C466.628 498.152 465.452 498.464 464.396 499.088C463.364 499.688 462.548 500.552 461.948 501.68C461.348 502.808 461.048 504.092 461.048 505.532C461.048 506.972 461.348 508.256 461.948 509.384C462.548 510.512 463.364 511.388 464.396 512.012C465.452 512.636 466.628 512.948 467.924 512.948ZM120.913 540.064V559H118.357V542.332H106.477V559H103.921V540.064H120.913ZM136.891 539.92C138.739 539.92 140.383 540.328 141.823 541.144C143.263 541.96 144.379 543.1 145.171 544.564C145.987 546.028 146.395 547.696 146.395 549.568C146.395 551.44 145.999 553.108 145.207 554.572C144.415 556.012 143.311 557.14 141.895 557.956C140.503 558.772 138.907 559.18 137.107 559.18C135.523 559.18 134.107 558.868 132.859 558.244C131.635 557.596 130.639 556.672 129.871 555.472V565.984H127.315V549.604C127.315 547.708 127.711 546.028 128.503 544.564C129.319 543.1 130.447 541.96 131.887 541.144C133.351 540.328 135.019 539.92 136.891 539.92ZM136.819 556.948C138.163 556.948 139.375 556.636 140.455 556.012C141.535 555.388 142.375 554.512 142.975 553.384C143.575 552.256 143.875 550.984 143.875 549.568C143.875 548.152 143.575 546.88 142.975 545.752C142.375 544.624 141.535 543.748 140.455 543.124C139.375 542.476 138.163 542.152 136.819 542.152C135.475 542.152 134.263 542.464 133.183 543.088C132.127 543.712 131.299 544.588 130.699 545.716C130.123 546.82 129.835 548.092 129.835 549.532C129.835 550.972 130.123 552.256 130.699 553.384C131.299 554.512 132.127 555.388 133.183 556.012C134.263 556.636 135.475 556.948 136.819 556.948ZM159.721 559.18C157.897 559.18 156.253 558.772 154.789 557.956C153.325 557.116 152.173 555.964 151.333 554.5C150.493 553.036 150.073 551.38 150.073 549.532C150.073 547.684 150.493 546.028 151.333 544.564C152.173 543.1 153.325 541.96 154.789 541.144C156.253 540.328 157.897 539.92 159.721 539.92C161.545 539.92 163.189 540.328 164.653 541.144C166.117 541.96 167.257 543.1 168.073 544.564C168.913 546.028 169.333 547.684 169.333 549.532C169.333 551.38 168.913 553.036 168.073 554.5C167.257 555.964 166.117 557.116 164.653 557.956C163.189 558.772 161.545 559.18 159.721 559.18ZM159.721 556.912C161.065 556.912 162.265 556.612 163.321 556.012C164.401 555.388 165.241 554.512 165.841 553.384C166.441 552.256 166.741 550.972 166.741 549.532C166.741 548.092 166.441 546.808 165.841 545.68C165.241 544.552 164.401 543.688 163.321 543.088C162.265 542.464 161.065 542.152 159.721 542.152C158.377 542.152 157.165 542.464 156.085 543.088C155.029 543.688 154.189 544.552 153.565 545.68C152.965 546.808 152.665 548.092 152.665 549.532C152.665 550.972 152.965 552.256 153.565 553.384C154.189 554.512 155.029 555.388 156.085 556.012C157.165 556.612 158.377 556.912 159.721 556.912ZM188.188 542.332H177.352V559H174.796V540.064H188.188V542.332ZM200.594 539.92C202.442 539.92 204.086 540.328 205.526 541.144C206.966 541.96 208.082 543.1 208.874 544.564C209.69 546.028 210.098 547.696 210.098 549.568C210.098 551.44 209.702 553.108 208.91 554.572C208.118 556.012 207.014 557.14 205.598 557.956C204.206 558.772 202.61 559.18 200.81 559.18C199.226 559.18 197.81 558.868 196.562 558.244C195.338 557.596 194.342 556.672 193.574 555.472V565.984H191.018V549.604C191.018 547.708 191.414 546.028 192.206 544.564C193.022 543.1 194.15 541.96 195.59 541.144C197.054 540.328 198.722 539.92 200.594 539.92ZM200.522 556.948C201.866 556.948 203.078 556.636 204.158 556.012C205.238 555.388 206.078 554.512 206.678 553.384C207.278 552.256 207.578 550.984 207.578 549.568C207.578 548.152 207.278 546.88 206.678 545.752C206.078 544.624 205.238 543.748 204.158 543.124C203.078 542.476 201.866 542.152 200.522 542.152C199.178 542.152 197.966 542.464 196.886 543.088C195.83 543.712 195.002 544.588 194.402 545.716C193.826 546.82 193.538 548.092 193.538 549.532C193.538 550.972 193.826 552.256 194.402 553.384C195.002 554.512 195.83 555.388 196.886 556.012C197.966 556.636 199.178 556.948 200.522 556.948ZM232.821 540.064V559H230.373V555.256C229.605 556.528 228.585 557.5 227.313 558.172C226.065 558.844 224.649 559.18 223.065 559.18C221.289 559.18 219.681 558.772 218.241 557.956C216.801 557.14 215.673 556 214.857 554.536C214.041 553.072 213.633 551.404 213.633 549.532C213.633 547.66 214.041 545.992 214.857 544.528C215.673 543.064 216.801 541.936 218.241 541.144C219.681 540.328 221.289 539.92 223.065 539.92C224.601 539.92 225.981 540.244 227.205 540.892C228.453 541.516 229.473 542.44 230.265 543.664V540.064H232.821ZM223.281 556.912C224.601 556.912 225.789 556.612 226.845 556.012C227.925 555.388 228.765 554.512 229.365 553.384C229.989 552.256 230.301 550.972 230.301 549.532C230.301 548.092 229.989 546.808 229.365 545.68C228.765 544.552 227.925 543.688 226.845 543.088C225.789 542.464 224.601 542.152 223.281 542.152C221.937 542.152 220.725 542.464 219.645 543.088C218.589 543.688 217.749 544.552 217.125 545.68C216.525 546.808 216.225 548.092 216.225 549.532C216.225 550.972 216.525 552.256 217.125 553.384C217.749 554.512 218.589 555.388 219.645 556.012C220.725 556.612 221.937 556.912 223.281 556.912ZM261.179 540.064V559H258.839V544.024L251.171 556.696H250.019L242.351 543.988V559H240.011V540.064H242.603L250.631 553.708L258.803 540.064H261.179ZM289.62 540.064V559H287.28V544.024L279.612 556.696H278.46L270.792 543.988V559H268.452V540.064H271.044L279.072 553.708L287.244 540.064H289.62ZM313.886 540.064V556.696C313.886 559.912 313.154 562.288 311.69 563.824C310.226 565.384 308.018 566.164 305.066 566.164C303.41 566.164 301.838 565.9 300.35 565.372C298.886 564.868 297.698 564.16 296.786 563.248L298.082 561.304C298.898 562.12 299.906 562.756 301.106 563.212C302.306 563.668 303.59 563.896 304.958 563.896C307.142 563.896 308.75 563.332 309.782 562.204C310.814 561.1 311.33 559.372 311.33 557.02V554.824C310.658 555.928 309.734 556.78 308.558 557.38C307.406 557.98 306.098 558.28 304.634 558.28C302.162 558.28 300.206 557.596 298.766 556.228C297.35 554.836 296.642 552.808 296.642 550.144V540.064H299.198V549.892C299.198 551.884 299.69 553.396 300.674 554.428C301.658 555.46 303.062 555.976 304.886 555.976C306.878 555.976 308.45 555.376 309.602 554.176C310.754 552.952 311.33 551.26 311.33 549.1V540.064H313.886ZM338.35 559.18C336.526 559.18 334.882 558.772 333.418 557.956C331.954 557.116 330.802 555.964 329.962 554.5C329.122 553.036 328.702 551.38 328.702 549.532C328.702 547.684 329.122 546.028 329.962 544.564C330.802 543.1 331.954 541.96 333.418 541.144C334.882 540.328 336.526 539.92 338.35 539.92C340.174 539.92 341.818 540.328 343.282 541.144C344.746 541.96 345.886 543.1 346.702 544.564C347.542 546.028 347.962 547.684 347.962 549.532C347.962 551.38 347.542 553.036 346.702 554.5C345.886 555.964 344.746 557.116 343.282 557.956C341.818 558.772 340.174 559.18 338.35 559.18ZM338.35 556.912C339.694 556.912 340.894 556.612 341.95 556.012C343.03 555.388 343.87 554.512 344.47 553.384C345.07 552.256 345.37 550.972 345.37 549.532C345.37 548.092 345.07 546.808 344.47 545.68C343.87 544.552 343.03 543.688 341.95 543.088C340.894 542.464 339.694 542.152 338.35 542.152C337.006 542.152 335.794 542.464 334.714 543.088C333.658 543.688 332.818 544.552 332.194 545.68C331.594 546.808 331.294 548.092 331.294 549.532C331.294 550.972 331.594 552.256 332.194 553.384C332.818 554.512 333.658 555.388 334.714 556.012C335.794 556.612 337.006 556.912 338.35 556.912ZM362.605 540.532C364.357 540.532 365.917 540.928 367.285 541.72C368.677 542.488 369.757 543.58 370.525 544.996C371.293 546.388 371.677 547.984 371.677 549.784C371.677 551.632 371.269 553.276 370.453 554.716C369.661 556.132 368.545 557.236 367.105 558.028C365.665 558.82 364.009 559.216 362.137 559.216C358.993 559.216 356.557 558.112 354.829 555.904C353.101 553.696 352.237 550.648 352.237 546.76C352.237 542.704 353.005 539.596 354.541 537.436C356.101 535.276 358.525 533.812 361.813 533.044L370.309 531.1L370.741 533.44L362.749 535.276C360.037 535.876 358.045 536.944 356.773 538.48C355.501 539.992 354.805 542.236 354.685 545.212C355.453 543.748 356.521 542.608 357.889 541.792C359.257 540.952 360.829 540.532 362.605 540.532ZM362.209 557.092C363.529 557.092 364.705 556.792 365.737 556.192C366.793 555.568 367.609 554.704 368.185 553.6C368.785 552.496 369.085 551.248 369.085 549.856C369.085 548.464 368.797 547.24 368.221 546.184C367.645 545.128 366.829 544.312 365.773 543.736C364.741 543.136 363.553 542.836 362.209 542.836C360.865 542.836 359.665 543.136 358.609 543.736C357.577 544.312 356.761 545.128 356.161 546.184C355.585 547.24 355.297 548.464 355.297 549.856C355.297 551.248 355.585 552.496 356.161 553.6C356.761 554.704 357.589 555.568 358.645 556.192C359.701 556.792 360.889 557.092 362.209 557.092ZM394.148 540.064V556.696C394.148 559.912 393.416 562.288 391.952 563.824C390.488 565.384 388.28 566.164 385.328 566.164C383.672 566.164 382.1 565.9 380.612 565.372C379.148 564.868 377.96 564.16 377.048 563.248L378.344 561.304C379.16 562.12 380.168 562.756 381.368 563.212C382.568 563.668 383.852 563.896 385.22 563.896C387.404 563.896 389.012 563.332 390.044 562.204C391.076 561.1 391.592 559.372 391.592 557.02V554.824C390.92 555.928 389.996 556.78 388.82 557.38C387.668 557.98 386.36 558.28 384.896 558.28C382.424 558.28 380.468 557.596 379.028 556.228C377.612 554.836 376.904 552.808 376.904 550.144V540.064H379.46V549.892C379.46 551.884 379.952 553.396 380.936 554.428C381.92 555.46 383.324 555.976 385.148 555.976C387.14 555.976 388.712 555.376 389.864 554.176C391.016 552.952 391.592 551.26 391.592 549.1V540.064H394.148ZM415.67 540.064V559H413.114V551.116C410.93 552.076 408.782 552.556 406.67 552.556C404.39 552.556 402.614 552.04 401.342 551.008C400.07 549.952 399.434 548.38 399.434 546.292V540.064H401.99V546.148C401.99 547.564 402.446 548.644 403.358 549.388C404.27 550.108 405.53 550.468 407.138 550.468C408.914 550.468 410.906 550 413.114 549.064V540.064H415.67ZM430.957 556.912C432.133 556.912 433.213 556.708 434.197 556.3C435.205 555.868 436.057 555.244 436.753 554.428L438.193 556.084C437.353 557.092 436.309 557.86 435.061 558.388C433.813 558.916 432.433 559.18 430.921 559.18C428.977 559.18 427.249 558.772 425.737 557.956C424.225 557.116 423.049 555.964 422.209 554.5C421.369 553.036 420.949 551.38 420.949 549.532C420.949 547.684 421.345 546.028 422.137 544.564C422.953 543.1 424.069 541.96 425.485 541.144C426.901 540.328 428.509 539.92 430.309 539.92C431.989 539.92 433.501 540.304 434.845 541.072C436.213 541.84 437.293 542.908 438.085 544.276C438.901 545.644 439.333 547.204 439.381 548.956L423.829 551.98C424.309 553.516 425.173 554.728 426.421 555.616C427.693 556.48 429.205 556.912 430.957 556.912ZM430.309 542.116C428.989 542.116 427.801 542.428 426.745 543.052C425.713 543.652 424.897 544.504 424.297 545.608C423.721 546.688 423.433 547.936 423.433 549.352C423.433 549.712 423.445 549.976 423.469 550.144L436.825 547.552C436.537 545.968 435.805 544.672 434.629 543.664C433.453 542.632 432.013 542.116 430.309 542.116ZM444.656 540.064H447.212V548.452H459.128V540.064H461.684V559H459.128V550.648H447.212V559H444.656V540.064ZM485.617 540.064V559H483.169V555.544C482.497 556.696 481.573 557.596 480.397 558.244C479.221 558.868 477.877 559.18 476.365 559.18C473.869 559.18 471.901 558.496 470.461 557.128C469.045 555.736 468.337 553.708 468.337 551.044V540.064H470.893V550.792C470.893 552.784 471.385 554.296 472.369 555.328C473.353 556.36 474.769 556.876 476.617 556.876C478.609 556.876 480.181 556.276 481.333 555.076C482.485 553.852 483.061 552.16 483.061 550V540.064H485.617ZM507.434 540.064V559H505.094V552.736H499.154H498.434L494.042 559H491.27L495.986 552.376C494.522 551.968 493.394 551.272 492.602 550.288C491.81 549.304 491.414 548.056 491.414 546.544C491.414 544.432 492.134 542.824 493.574 541.72C495.014 540.616 496.982 540.064 499.478 540.064H507.434ZM494.006 546.616C494.006 549.424 495.794 550.828 499.37 550.828H505.094V542.332H499.55C495.854 542.332 494.006 543.76 494.006 546.616ZM514.902 559.18C514.374 559.18 513.918 558.988 513.534 558.604C513.174 558.22 512.994 557.752 512.994 557.2C512.994 556.648 513.174 556.192 513.534 555.832C513.918 555.448 514.374 555.256 514.902 555.256C515.43 555.256 515.886 555.448 516.27 555.832C516.654 556.192 516.846 556.648 516.846 557.2C516.846 557.752 516.654 558.22 516.27 558.604C515.886 558.988 515.43 559.18 514.902 559.18ZM186.108 621.8V647H183.516V636.56C180.78 637.736 178.128 638.324 175.56 638.324C172.608 638.324 170.304 637.604 168.648 636.164C167.016 634.724 166.2 632.708 166.2 630.116V621.8H168.828V629.828C168.828 631.772 169.44 633.284 170.664 634.364C171.888 635.444 173.604 635.984 175.812 635.984C178.332 635.984 180.9 635.384 183.516 634.184V621.8H186.108ZM217.66 627.92C220.036 627.92 221.896 628.604 223.24 629.972C224.608 631.34 225.292 633.356 225.292 636.02V647H222.736V636.272C222.736 634.304 222.256 632.804 221.296 631.772C220.36 630.74 219.028 630.224 217.3 630.224C215.332 630.224 213.784 630.836 212.656 632.06C211.528 633.26 210.964 634.928 210.964 637.064V647H208.408V636.272C208.408 634.304 207.928 632.804 206.968 631.772C206.032 630.74 204.688 630.224 202.936 630.224C200.992 630.224 199.444 630.836 198.292 632.06C197.164 633.26 196.6 634.928 196.6 637.064V647H194.044V628.064H196.492V631.52C197.164 630.368 198.1 629.48 199.3 628.856C200.5 628.232 201.88 627.92 203.44 627.92C205.024 627.92 206.392 628.256 207.544 628.928C208.72 629.6 209.596 630.596 210.172 631.916C210.868 630.668 211.864 629.696 213.16 629C214.48 628.28 215.98 627.92 217.66 627.92ZM239.79 647.18C237.966 647.18 236.322 646.772 234.858 645.956C233.394 645.116 232.242 643.964 231.402 642.5C230.562 641.036 230.142 639.38 230.142 637.532C230.142 635.684 230.562 634.028 231.402 632.564C232.242 631.1 233.394 629.96 234.858 629.144C236.322 628.328 237.966 627.92 239.79 627.92C241.614 627.92 243.258 628.328 244.722 629.144C246.186 629.96 247.326 631.1 248.142 632.564C248.982 634.028 249.402 635.684 249.402 637.532C249.402 639.38 248.982 641.036 248.142 642.5C247.326 643.964 246.186 645.116 244.722 645.956C243.258 646.772 241.614 647.18 239.79 647.18ZM239.79 644.912C241.134 644.912 242.334 644.612 243.39 644.012C244.47 643.388 245.31 642.512 245.91 641.384C246.51 640.256 246.81 638.972 246.81 637.532C246.81 636.092 246.51 634.808 245.91 633.68C245.31 632.552 244.47 631.688 243.39 631.088C242.334 630.464 241.134 630.152 239.79 630.152C238.446 630.152 237.234 630.464 236.154 631.088C235.098 631.688 234.258 632.552 233.634 633.68C233.034 634.808 232.734 636.092 232.734 637.532C232.734 638.972 233.034 640.256 233.634 641.384C234.258 642.512 235.098 643.388 236.154 644.012C237.234 644.612 238.446 644.912 239.79 644.912ZM280.882 638.576H276.778V647H274.222V638.576H270.118L264.322 647H261.262L268.066 637.244L261.802 628.064H264.574L270.118 636.38H274.222V628.064H276.778V636.38H280.882L286.462 628.064H289.234L282.97 637.28L289.774 647H286.714L280.882 638.576ZM294.245 643.256C294.797 643.256 295.253 643.448 295.613 643.832C295.973 644.192 296.153 644.648 296.153 645.2C296.153 645.488 296.105 645.8 296.009 646.136C295.937 646.472 295.817 646.856 295.649 647.288L294.137 652.256H292.409L293.633 647.036C293.249 646.916 292.937 646.7 292.697 646.388C292.457 646.052 292.337 645.656 292.337 645.2C292.337 644.648 292.517 644.192 292.877 643.832C293.237 643.448 293.693 643.256 294.245 643.256ZM323.139 637.208C325.707 637.808 326.991 639.356 326.991 641.852C326.991 643.508 326.379 644.78 325.155 645.668C323.931 646.556 322.107 647 319.683 647H311.079V628.064H319.431C321.591 628.064 323.283 628.484 324.507 629.324C325.731 630.164 326.343 631.364 326.343 632.924C326.343 633.956 326.055 634.844 325.479 635.588C324.927 636.308 324.147 636.848 323.139 637.208ZM313.563 636.488H319.251C320.715 636.488 321.831 636.212 322.599 635.66C323.391 635.108 323.787 634.304 323.787 633.248C323.787 632.192 323.391 631.4 322.599 630.872C321.831 630.344 320.715 630.08 319.251 630.08H313.563V636.488ZM319.575 644.984C321.207 644.984 322.431 644.72 323.247 644.192C324.063 643.664 324.471 642.836 324.471 641.708C324.471 640.58 324.099 639.752 323.355 639.224C322.611 638.672 321.435 638.396 319.827 638.396H313.563V644.984H319.575ZM349.974 628.064V647H347.418V630.332H335.538V647H332.982V628.064H349.974ZM365.268 644.912C366.444 644.912 367.524 644.708 368.508 644.3C369.516 643.868 370.368 643.244 371.064 642.428L372.504 644.084C371.664 645.092 370.62 645.86 369.372 646.388C368.124 646.916 366.744 647.18 365.232 647.18C363.288 647.18 361.56 646.772 360.048 645.956C358.536 645.116 357.36 643.964 356.52 642.5C355.68 641.036 355.26 639.38 355.26 637.532C355.26 635.684 355.656 634.028 356.448 632.564C357.264 631.1 358.38 629.96 359.796 629.144C361.212 628.328 362.82 627.92 364.62 627.92C366.3 627.92 367.812 628.304 369.156 629.072C370.524 629.84 371.604 630.908 372.396 632.276C373.212 633.644 373.644 635.204 373.692 636.956L358.14 639.98C358.62 641.516 359.484 642.728 360.732 643.616C362.004 644.48 363.516 644.912 365.268 644.912ZM364.62 630.116C363.3 630.116 362.112 630.428 361.056 631.052C360.024 631.652 359.208 632.504 358.608 633.608C358.032 634.688 357.744 635.936 357.744 637.352C357.744 637.712 357.756 637.976 357.78 638.144L371.136 635.552C370.848 633.968 370.116 632.672 368.94 631.664C367.764 630.632 366.324 630.116 364.62 630.116ZM387.678 627.92C389.526 627.92 391.17 628.328 392.61 629.144C394.05 629.96 395.166 631.1 395.958 632.564C396.774 634.028 397.182 635.696 397.182 637.568C397.182 639.44 396.786 641.108 395.994 642.572C395.202 644.012 394.098 645.14 392.682 645.956C391.29 646.772 389.694 647.18 387.894 647.18C386.31 647.18 384.894 646.868 383.646 646.244C382.422 645.596 381.426 644.672 380.658 643.472V653.984H378.102V637.604C378.102 635.708 378.498 634.028 379.29 632.564C380.106 631.1 381.234 629.96 382.674 629.144C384.138 628.328 385.806 627.92 387.678 627.92ZM387.606 644.948C388.95 644.948 390.162 644.636 391.242 644.012C392.322 643.388 393.162 642.512 393.762 641.384C394.362 640.256 394.662 638.984 394.662 637.568C394.662 636.152 394.362 634.88 393.762 633.752C393.162 632.624 392.322 631.748 391.242 631.124C390.162 630.476 388.95 630.152 387.606 630.152C386.262 630.152 385.05 630.464 383.97 631.088C382.914 631.712 382.086 632.588 381.486 633.716C380.91 634.82 380.622 636.092 380.622 637.532C380.622 638.972 380.91 640.256 381.486 641.384C382.086 642.512 382.914 643.388 383.97 644.012C385.05 644.636 386.262 644.948 387.606 644.948ZM410.725 644.912C411.901 644.912 412.981 644.708 413.965 644.3C414.973 643.868 415.825 643.244 416.521 642.428L417.961 644.084C417.121 645.092 416.077 645.86 414.829 646.388C413.581 646.916 412.201 647.18 410.689 647.18C408.745 647.18 407.017 646.772 405.505 645.956C403.993 645.116 402.817 643.964 401.977 642.5C401.137 641.036 400.717 639.38 400.717 637.532C400.717 635.684 401.113 634.028 401.905 632.564C402.721 631.1 403.837 629.96 405.253 629.144C406.669 628.328 408.277 627.92 410.077 627.92C411.757 627.92 413.269 628.304 414.613 629.072C415.981 629.84 417.061 630.908 417.853 632.276C418.669 633.644 419.101 635.204 419.149 636.956L403.597 639.98C404.077 641.516 404.941 642.728 406.189 643.616C407.461 644.48 408.973 644.912 410.725 644.912ZM410.077 630.116C408.757 630.116 407.569 630.428 406.513 631.052C405.481 631.652 404.665 632.504 404.065 633.608C403.489 634.688 403.201 635.936 403.201 637.352C403.201 637.712 403.213 637.976 403.237 638.144L416.593 635.552C416.305 633.968 415.573 632.672 414.397 631.664C413.221 630.632 411.781 630.116 410.077 630.116ZM441.919 628.064V644.696C441.919 647.912 441.127 650.288 439.543 651.824C437.983 653.384 435.619 654.164 432.451 654.164C430.699 654.164 429.031 653.9 427.447 653.372C425.887 652.868 424.615 652.16 423.631 651.248L424.927 649.304C425.839 650.12 426.943 650.756 428.239 651.212C429.559 651.668 430.939 651.896 432.379 651.896C434.779 651.896 436.543 651.332 437.671 650.204C438.799 649.1 439.363 647.372 439.363 645.02V642.608C438.571 643.808 437.527 644.72 436.231 645.344C434.959 645.968 433.543 646.28 431.983 646.28C430.207 646.28 428.587 645.896 427.123 645.128C425.683 644.336 424.543 643.244 423.703 641.852C422.887 640.436 422.479 638.84 422.479 637.064C422.479 635.288 422.887 633.704 423.703 632.312C424.543 630.92 425.683 629.84 427.123 629.072C428.563 628.304 430.183 627.92 431.983 627.92C433.591 627.92 435.043 628.244 436.339 628.892C437.635 629.54 438.679 630.476 439.471 631.7V628.064H441.919ZM432.235 644.012C433.603 644.012 434.839 643.724 435.943 643.148C437.047 642.548 437.899 641.72 438.499 640.664C439.123 639.608 439.435 638.408 439.435 637.064C439.435 635.72 439.123 634.532 438.499 633.5C437.899 632.444 437.047 631.628 435.943 631.052C434.863 630.452 433.627 630.152 432.235 630.152C430.867 630.152 429.631 630.44 428.527 631.016C427.447 631.592 426.595 632.408 425.971 633.464C425.371 634.52 425.071 635.72 425.071 637.064C425.071 638.408 425.371 639.608 425.971 640.664C426.595 641.72 427.447 642.548 428.527 643.148C429.631 643.724 430.867 644.012 432.235 644.012ZM448.74 621.8H451.764L451.224 639.44H449.244L448.74 621.8ZM450.252 647.18C449.724 647.18 449.268 647 448.884 646.64C448.524 646.256 448.344 645.812 448.344 645.308C448.344 644.78 448.524 644.348 448.884 644.012C449.244 643.652 449.7 643.472 450.252 643.472C450.78 643.472 451.224 643.652 451.584 644.012C451.944 644.348 452.124 644.78 452.124 645.308C452.124 645.812 451.944 646.256 451.584 646.64C451.224 647 450.78 647.18 450.252 647.18Z" fill="white"/>
<defs>
<filter id="filter0_d_235_368" x="0" y="0" width="619" height="747" filterUnits="userSpaceOnUse" color-interpolation-filters="sRGB">
<feFlood flood-opacity="0" result="BackgroundImageFix"/>
<feColorMatrix in="SourceAlpha" type="matrix" values="0 0 0 0 0 0 0 0 0 0 0 0 0 0 0 0 0 0 127 0" result="hardAlpha"/>
<feOffset dy="4"/>
<feGaussianBlur stdDeviation="2"/>
<feComposite in2="hardAlpha" operator="out"/>
<feColorMatrix type="matrix" values="0 0 0 0 0 0 0 0 0 0 0 0 0 0 0 0 0 0 0.25 0"/>
<feBlend mode="normal" in2="BackgroundImageFix" result="effect1_dropShadow_235_368"/>
<feBlend mode="normal" in="SourceGraphic" in2="effect1_dropShadow_235_368" result="shape"/>
</filter>
</defs>
</svg>
